0.5,-39.045
0.5,-46.21
0.5,-38.769
0.5,-49.775
0.5,-33.882
0.5,-33.562
0.5,-43.986
0.5,-35.746
0.5,-45.668
0.5,-41.294
0.5,-41.105
0.5,-47.716
0.5,-34.191
0.5,-48.107
0.5,-50.662
1,-54.025
1,-51.636
1,-46.853
1,-54.871
1,-48.116
1,-50.17
1,-48.674
1,-45.313
1,-57.962
1,-51.733
1,-39.694
1,-47.63
1,-41.614
1,-33.81
1,-48.34
1.5,-50.273
1.5,-51.446
1.5,-49.856
1.5,-54.898
1.5,-61.338
1.5,-53.614
1.5,-59.075
1.5,-59.746
1.5,-57.797
1.5,-57.066
1.5,-53.382
1.5,-50.323
1.5,-51.17
1.5,-46.498
1.5,-52.257
2,-53.21
2,-53.141
2,-58.243
2,-50.821
2,-52.405
2.5,-52.996
2.5,-56.992
2.5,-59.532
2.5,-49.285
2.5,-51.879
2,-50.572
2,-53.047
2,-67.953
2,-55.558
2,-51.004
2.5,-48.101
2.5,-52.656
2.5,-63.151
2.5,-49.423
2.5,-50.78
3,-50.575
3,-49.983
3,-68.284
3,-51.594
3,-57.001
3.5,-51.918
3.5,-51.927
3.5,-59.834
3.5,-56.921
3.5,-53.583
4,-55.111
4,-56.718
4,-59.395
4,-63.003
4,-54.791
4.5,-58.668
4.5,-56.371
4.5,-61.619
4.5,-59.627
4.5,-55.604
2,-49.457
2,-60.246
2,-62.98
2,-53.004
2,-52.993
2.5,-56.622
2.5,-56.17
2.5,-56.182
2.5,-65.349
2.5,-49.646
3,-58.729
3,-57.487
3,-57.203
3,-68.801
3,-56.081
3.5,-57.592
3.5,-56.979
3.5,-67.164
3.5,-64.167
3.5,-51.237
4,-60.995
4,-66.319
4,-61.294
4,-59.186
4,-53.659
4.5,-56.883
4.5,-61.079
4.5,-57.602
4.5,-63.121
4.5,-54.005
5,-60.827
5,-61.554
5,-60.994
5,-58.48
5,-59.576
5.5,-59.872
5.5,-63.961
5.5,-68.478
5.5,-68.299
5.5,-58.606
6,-56.51
6,-58.496
6,-60.217
6,-67.062
6,-55.783
3,-51.656
3,-60.375
3,-59.344
3,-64.684
3,-51.211
3.5,-57.216
3.5,-61.351
3.5,-61.265
3.5,-63.209
3.5,-62.538
4,-61.978
4,-67.719
4,-60.725
4,-66.55
4,-59.51
4.5,-59.203
4.5,-78.084
4.5,-59.937
4.5,-65.852
4.5,-55.325
5,-64.848
5,-61.834
5,-61.957
5,-66.663
5,-58.81
5.5,-59.967
5.5,-66.214
5.5,-65.48
5.5,-67.691
5.5,-59.641
6,-53.183
6,-65.812
6,-59.624
6,-64.509
6,-64.355
6,-55.424
6,-64.191
6,-63.782
6,-70.853
6,-61.479
5.5,-56.898
5.5,-59.252
5.5,-63.453
5.5,-56.032
5.5,-59.108
5,-65.163
5,-66.929
5,-60.377
5,-61.641
5,-56.522
7,-64.664
7,-65.759
7,-71.787
7,-74.231
7,-66.525
8,-62.134
8,-62.655
8,-71.98
8,-61.825
8,-70.934
9,-59.313
9,-64.741
9,-73.74
9,-67.556
9,-70.501
10,-66.4
10,-68.883
10,-73.119
10,-68.582
10,-69.604
11,-68.822
11,-69.496
11,-77.548
11,-68.95
11,-72.113
12,-70.63
12,-74.98
12,-71.035
12,-73.483
12,-69.725
13,-70.364
13,-66.966
13,-77.634
13,-63.624
13,-74.66
14,-64.914
14,-66.874
14,-79.47
14,-68.573
14,-74.034
15,-67.775
15,-69.698
15,-75.918
15,-70.172
15,-74.296
16,-69.092
16,-68.889
16,-71.891
16,-73.933
16,-75.71
17,-69.759
17,-69.944
17,-68.173
17,-74.757
17,-70.675
18,-70.007
18,-72.71
18,-71.764
18,-73.087
18,-74.864
19,-74.483
19,-79.336
19,-78.048
19,-76.838
19,-81.459
20,-70.608
20,-75.619
20,-83.988
20,-73.137
20,-73.265
7,-61.046
7,-64.051
7,-66.831
7,-61.724
7,-67.797
8,-64.456
8,-62.3
8,-73.066
8,-65.211
8,-64.762
9,-67.134
9,-61.81
9,-67.738
9,-68.062
9,-67.12
10,-72.007
10,-60.921
10,-71.678
10,-64.151
10,-70.512
11,-67.66
11,-63.988
11,-75.244
11,-66.227
11,-68.953
12,-74.092
12,-67.554
12,-75.415
12,-74.575
12,-73.081
13,-68.54
13,-65.952
13,-69.979
13,-71.381
13,-69.238
14,-68.544
14,-70.91
14,-72.582
14,-74.439
14,-67.933
15,-72.061
15,-68.35
15,-73.214
15,-77.52
15,-71.722
16,-74.661
16,-69.334
16,-78.241
16,-77.402
16,-72.775
17,-72.354
17,-69.75
17,-74.846
17,-74.24
17,-69.789
18,-73.743
18,-69.563
18,-77.787
18,-71.918
18,-68.971
19,-76.946
19,-74.385
19,-74.668
19,-75.436
19,-69.759
20,-85.952
20,-81.872
20,-78.48
20,-74.024
20,-73.239
7,-75.475
7,-74.864
7,-67.884
7,-62.827
7,-62.053
8,-77.016
8,-67.629
8,-69.413
8,-67.375
8,-65.761
9,-74.461
9,-70.519
9,-65.115
9,-63.788
9,-58.397
10,-70.408
10,-69.129
10,-69.527
10,-65.152
10,-69.57
11,-80.686
11,-80.571
11,-71.587
11,-64.175
11,-63.443
12,-74.765
12,-76.867
12,-67.651
12,-65.616
12,-62.043
13,-73.739
13,-76.514
13,-73.202
13,-68.49
13,-63.799
14,-74.671
14,-79.432
14,-78.622
14,-73.198
14,-65.179
15,-80.315
15,-82.049
15,-75.926
15,-70.224
15,-69.589
16,-78.016
16,-75.659
16,-77.74
16,-73.144
16,-66.901
17,-79.342
17,-75.978
17,-76.614
17,-68.908
17,-68.507
18,-79.471
18,-76.897
18,-74.354
18,-72.942
18,-68.019
19,-81.274
19,-79.355
19,-75.362
19,-71.349
19,-68.378
20,-82.744
20,-77.887
20,-77.962
20,-74.111
20,-69.215
