0.08028864860534668,dc:a6:32:82:34:61,-73,1,2
0.14131474494934082,dc:a6:32:82:34:61,-73,1,2
0.20621585845947266,dc:a6:32:82:34:61,-73,1,2
0.29006075859069824,dc:a6:32:82:34:61,-73,1,2
0.35128068923950195,dc:a6:32:82:34:61,-73,1,2
0.41253662109375,dc:a6:32:82:34:61,-74,1,2
0.4750349521636963,dc:a6:32:82:34:61,-73,1,2
0.49878430366516113,dc:a6:32:82:34:61,-73,1,2
0.5637907981872559,dc:a6:32:82:34:61,-73,1,2
0.5887846946716309,dc:a6:32:82:34:61,-73,1,2
0.6550383567810059,dc:a6:32:82:34:61,-73,1,2
0.7392861843109131,dc:a6:32:82:34:61,-73,1,2
0.8042902946472168,dc:a6:32:82:34:61,-73,1,2
0.8930132389068604,dc:a6:32:82:34:61,-73,1,2
1.044311285018921,dc:a6:32:82:34:61,-73,1,2
1.1355602741241455,dc:a6:32:82:34:61,-73,1,2
1.1955156326293945,dc:a6:32:82:34:61,-73,1,2
1.2192530632019043,dc:a6:32:82:34:61,-73,1,2
1.2817802429199219,dc:a6:32:82:34:61,-73,1,2
1.416769027709961,dc:a6:32:82:34:61,-65,1,4
1.439312219619751,dc:a6:32:82:34:61,-65,1,4
1.5018126964569092,dc:a6:32:82:34:61,-65,1,4
1.56306791305542,dc:a6:32:82:34:61,-65,1,4
1.6255614757537842,dc:a6:32:82:34:61,-65,1,4
1.713083267211914,dc:a6:32:82:34:61,-65,1,4
1.8030691146850586,dc:a6:32:82:34:61,-65,1,4
1.8893249034881592,dc:a6:32:82:34:61,-65,1,4
1.9567129611968994,dc:a6:32:82:34:61,-65,1,4
2.043015480041504,dc:a6:32:82:34:61,-65,1,4
2.1305148601531982,dc:a6:32:82:34:61,-65,1,4
2.1917724609375,dc:a6:32:82:34:61,-65,1,4
2.2555086612701416,dc:a6:32:82:34:61,-65,1,4
2.341777801513672,dc:a6:32:82:34:61,-65,1,4
2.430527687072754,dc:a6:32:82:34:61,-65,1,4
2.4942939281463623,dc:a6:32:82:34:61,-65,1,4
2.640551805496216,dc:a6:32:82:34:61,-65,1,4
2.7055270671844482,dc:a6:32:82:34:61,-65,1,4
2.7655179500579834,dc:a6:32:82:34:61,-65,1,4
2.8267459869384766,dc:a6:32:82:34:61,-65,1,4
2.886716604232788,dc:a6:32:82:34:61,-65,1,4
2.976740598678589,dc:a6:32:82:34:61,-65,1,4
3.06052565574646,dc:a6:32:82:34:61,-65,1,4
3.1230385303497314,dc:a6:32:82:34:61,-65,1,4
3.1867406368255615,dc:a6:32:82:34:61,-65,1,4
3.209307909011841,dc:a6:32:82:34:61,-65,1,4
3.300568103790283,dc:a6:32:82:34:61,-65,1,4
3.365539073944092,dc:a6:32:82:34:61,-65,1,4
3.5193374156951904,dc:a6:32:82:34:61,-66,1,1
3.610548973083496,dc:a6:32:82:34:61,-67,1,1
3.7030446529388428,dc:a6:32:82:34:61,-67,1,1
3.7918307781219482,dc:a6:32:82:34:61,-67,1,1
3.8818416595458984,dc:a6:32:82:34:61,-67,1,1
3.9743030071258545,dc:a6:32:82:34:61,-67,1,1
3.99940824508667,dc:a6:32:82:34:61,-68,1,1
4.063167572021484,dc:a6:32:82:34:61,-68,1,1
4.151886701583862,dc:a6:32:82:34:61,-68,1,1
4.303165912628174,dc:a6:32:82:34:61,-67,1,1
4.390676021575928,dc:a6:32:82:34:61,-67,1,1
4.454379320144653,dc:a6:32:82:34:61,-67,1,1
4.541915416717529,dc:a6:32:82:34:61,-67,1,1
4.604374885559082,dc:a6:32:82:34:61,-67,1,1
4.68941593170166,dc:a6:32:82:34:61,-67,1,1
4.754410743713379,dc:a6:32:82:34:61,-67,1,1
4.844396352767944,dc:a6:32:82:34:61,-67,1,1
4.929396867752075,dc:a6:32:82:34:61,-67,1,1
5.024385452270508,dc:a6:32:82:34:61,-68,1,1
5.113248586654663,dc:a6:32:82:34:61,-68,1,1
5.204552173614502,dc:a6:32:82:34:61,-68,1,1
5.22951865196228,dc:a6:32:82:34:61,-68,1,1
5.289520263671875,dc:a6:32:82:34:61,-68,1,1
5.383269786834717,dc:a6:32:82:34:61,-67,1,1
5.445791006088257,dc:a6:32:82:34:61,-66,1,1
5.469529867172241,dc:a6:32:82:34:61,-67,1,1
5.6895246505737305,dc:a6:32:82:34:61,-73,1,2
5.753268718719482,dc:a6:32:82:34:61,-72,1,2
5.840790271759033,dc:a6:32:82:34:61,-73,1,2
5.934514284133911,dc:a6:32:82:34:61,-74,1,2
6.0532310009002686,dc:a6:32:82:34:61,-73,1,2
6.143179893493652,dc:a6:32:82:34:61,-73,1,2
6.23445463180542,dc:a6:32:82:34:61,-73,1,2
6.323198556900024,dc:a6:32:82:34:61,-73,1,2
6.410678863525391,dc:a6:32:82:34:61,-73,1,2
6.473212718963623,dc:a6:32:82:34:61,-73,1,2
6.53684663772583,dc:a6:32:82:34:61,-73,1,2
6.619431018829346,dc:a6:32:82:34:61,-73,1,2
6.680708646774292,dc:a6:32:82:34:61,-73,1,2
6.831954479217529,dc:a6:32:82:34:61,-73,1,2
6.923203945159912,dc:a6:32:82:34:61,-73,1,2
7.0132129192352295,dc:a6:32:82:34:61,-73,1,2
7.103202819824219,dc:a6:32:82:34:61,-74,1,2
7.166867733001709,dc:a6:32:82:34:61,-73,1,2
7.2494776248931885,dc:a6:32:82:34:61,-73,1,2
7.3119215965271,dc:a6:32:82:34:61,-73,1,2
7.401957750320435,dc:a6:32:82:34:61,-73,1,2
7.493232011795044,dc:a6:32:82:34:61,-72,1,2
7.554457187652588,dc:a6:32:82:34:61,-73,1,2
7.6168904304504395,dc:a6:32:82:34:61,-73,1,2
7.743226766586304,dc:a6:32:82:34:61,-66,1,4
7.830687999725342,dc:a6:32:82:34:61,-66,1,4
7.894447088241577,dc:a6:32:82:34:61,-66,1,4
7.955743074417114,dc:a6:32:82:34:61,-66,1,4
8.043193340301514,dc:a6:32:82:34:61,-66,1,4
8.13688325881958,dc:a6:32:82:34:61,-66,1,4
8.22195315361023,dc:a6:32:82:34:61,-66,1,4
8.284457206726074,dc:a6:32:82:34:61,-66,1,4
8.373242616653442,dc:a6:32:82:34:61,-65,1,4
8.526914834976196,dc:a6:32:82:34:61,-66,1,4
8.55074667930603,dc:a6:32:82:34:61,-66,1,4
8.616902351379395,dc:a6:32:82:34:61,-66,1,4
8.641958713531494,dc:a6:32:82:34:61,-66,1,4
8.70445966720581,dc:a6:32:82:34:61,-66,1,4
8.794463634490967,dc:a6:32:82:34:61,-66,1,4
8.8795006275177,dc:a6:32:82:34:61,-66,1,4
8.944473028182983,dc:a6:32:82:34:61,-66,1,4
9.030729293823242,dc:a6:32:82:34:61,-65,1,4
9.094510793685913,dc:a6:32:82:34:61,-65,1,4
9.184476613998413,dc:a6:32:82:34:61,-65,1,4
9.270735263824463,dc:a6:32:82:34:61,-65,1,4
9.361979722976685,dc:a6:32:82:34:61,-65,1,4
9.423259019851685,dc:a6:32:82:34:61,-65,1,4
9.48691439628601,dc:a6:32:82:34:61,-65,1,4
9.574475526809692,dc:a6:32:82:34:61,-65,1,4
9.636932134628296,dc:a6:32:82:34:61,-65,1,4
9.659493207931519,dc:a6:32:82:34:61,-65,1,4
9.721994400024414,dc:a6:32:82:34:61,-65,1,4
9.826932430267334,dc:a6:32:82:34:61,-67,1,1
9.912035465240479,dc:a6:32:82:34:61,-67,1,1
10.003317832946777,dc:a6:32:82:34:61,-68,1,1
10.093304634094238,dc:a6:32:82:34:61,-67,1,1
10.155802965164185,dc:a6:32:82:34:61,-68,1,1
10.244699478149414,dc:a6:32:82:34:61,-68,1,1
10.332170963287354,dc:a6:32:82:34:61,-67,1,1
10.39590859413147,dc:a6:32:82:34:61,-67,1,1
10.48091435432434,dc:a6:32:82:34:61,-67,1,1
10.572149753570557,dc:a6:32:82:34:61,-67,1,1
10.63709831237793,dc:a6:32:82:34:61,-67,1,1
10.725913047790527,dc:a6:32:82:34:61,-67,1,1
10.809674739837646,dc:a6:32:82:34:61,-67,1,1
10.870909690856934,dc:a6:32:82:34:61,-67,1,1
10.933380126953125,dc:a6:32:82:34:61,-67,1,1
10.99582576751709,dc:a6:32:82:34:61,-71,1,1
11.0820791721344,dc:a6:32:82:34:61,-68,1,1
11.14583683013916,dc:a6:32:82:34:61,-68,1,1
11.229552507400513,dc:a6:32:82:34:61,-68,1,1
11.295791625976562,dc:a6:32:82:34:61,-67,1,1
11.320783853530884,dc:a6:32:82:34:61,-67,1,1
11.38454270362854,dc:a6:32:82:34:61,-67,1,1
11.445802927017212,dc:a6:32:82:34:61,-67,1,1
11.470787525177002,dc:a6:32:82:34:61,-66,1,1
11.536973476409912,dc:a6:32:82:34:61,-67,1,1
11.562049388885498,dc:a6:32:82:34:61,-67,1,1
11.652042150497437,dc:a6:32:82:34:61,-67,1,1
11.712059497833252,dc:a6:32:82:34:61,-67,1,1
11.80208134651184,dc:a6:32:82:34:61,-67,1,1
11.929576635360718,dc:a6:32:82:34:61,-73,1,2
11.989550113677979,dc:a6:32:82:34:61,-73,1,2
12.057027339935303,dc:a6:32:82:34:61,-73,1,2
12.139580249786377,dc:a6:32:82:34:61,-73,1,2
12.229567527770996,dc:a6:32:82:34:61,-72,1,2
12.289585590362549,dc:a6:32:82:34:61,-73,1,2
12.352061986923218,dc:a6:32:82:34:61,-72,1,2
12.442070484161377,dc:a6:32:82:34:61,-72,1,2
12.53456735610962,dc:a6:32:82:34:61,-72,1,2
12.62456488609314,dc:a6:32:82:34:61,-73,1,2
12.710826635360718,dc:a6:32:82:34:61,-73,1,2
12.770827531814575,dc:a6:32:82:34:61,-72,1,2
12.835845708847046,dc:a6:32:82:34:61,-73,1,2
12.920840978622437,dc:a6:32:82:34:61,-73,1,2
12.985828876495361,dc:a6:32:82:34:61,-73,1,2
13.009576559066772,dc:a6:32:82:34:61,-73,1,2
13.07212209701538,dc:a6:32:82:34:61,-73,1,2
13.159595966339111,dc:a6:32:82:34:61,-73,1,2
13.22701644897461,dc:a6:32:82:34:61,-72,1,2
13.249577283859253,dc:a6:32:82:34:61,-73,1,2
13.313343286514282,dc:a6:32:82:34:61,-72,1,2
13.400871515274048,dc:a6:32:82:34:61,-73,1,2
13.462086200714111,dc:a6:32:82:34:61,-72,1,2
13.5508713722229,dc:a6:32:82:34:61,-72,1,2
13.613331079483032,dc:a6:32:82:34:61,-73,1,2
13.707061052322388,dc:a6:32:82:34:61,-72,1,2
13.79335641860962,dc:a6:32:82:34:61,-72,1,2
13.857021570205688,dc:a6:32:82:34:61,-73,1,2
14.074596643447876,dc:a6:32:82:34:61,-65,1,4
14.137028455734253,dc:a6:32:82:34:61,-65,1,4
14.159599542617798,dc:a6:32:82:34:61,-65,1,4
14.224658966064453,dc:a6:32:82:34:61,-65,1,4
14.313396215438843,dc:a6:32:82:34:61,-65,1,4
14.375859022140503,dc:a6:32:82:34:61,-65,1,4
14.465855598449707,dc:a6:32:82:34:61,-65,1,4
14.549644708633423,dc:a6:32:82:34:61,-65,1,4
14.617034673690796,dc:a6:32:82:34:61,-65,1,4
14.640854358673096,dc:a6:32:82:34:61,-65,1,4
14.790887832641602,dc:a6:32:82:34:61,-65,1,4
14.88340139389038,dc:a6:32:82:34:61,-65,1,4
14.974718809127808,dc:a6:32:82:34:61,-65,1,4
15.035903692245483,dc:a6:32:82:34:61,-65,1,4
15.05962324142456,dc:a6:32:82:34:61,-65,1,4
15.149631023406982,dc:a6:32:82:34:61,-65,1,4
15.213453769683838,dc:a6:32:82:34:61,-65,1,4
15.276045083999634,dc:a6:32:82:34:61,-65,1,4
15.364768981933594,dc:a6:32:82:34:61,-65,1,4
15.389750719070435,dc:a6:32:82:34:61,-65,1,4
15.452242851257324,dc:a6:32:82:34:61,-65,1,4
15.544750452041626,dc:a6:32:82:34:61,-65,1,4
15.63352084159851,dc:a6:32:82:34:61,-65,1,4
15.721009016036987,dc:a6:32:82:34:61,-65,1,4
15.813502550125122,dc:a6:32:82:34:61,-65,1,4
15.87477707862854,dc:a6:32:82:34:61,-65,1,4
15.89974045753479,dc:a6:32:82:34:61,-65,1,4
15.964686393737793,dc:a6:32:82:34:61,-65,1,4
16.02708601951599,dc:a6:32:82:34:61,-65,1,4
16.180959224700928,dc:a6:32:82:34:61,-67,1,1
16.274688005447388,dc:a6:32:82:34:61,-67,1,1
16.36343789100647,dc:a6:32:82:34:61,-67,1,1
16.427101135253906,dc:a6:32:82:34:61,-67,1,1
16.51095414161682,dc:a6:32:82:34:61,-66,1,1
16.57709813117981,dc:a6:32:82:34:61,-67,1,1
16.6671040058136,dc:a6:32:82:34:61,-67,1,1
16.75095820426941,dc:a6:32:82:34:61,-67,1,1
16.817102909088135,dc:a6:32:82:34:61,-67,1,1
16.83967113494873,dc:a6:32:82:34:61,-67,1,1
16.902189254760742,dc:a6:32:82:34:61,-67,1,1
16.995959043502808,dc:a6:32:82:34:61,-67,1,1
17.08469796180725,dc:a6:32:82:34:61,-68,1,1
17.174681663513184,dc:a6:32:82:34:61,-67,1,1
17.26594042778015,dc:a6:32:82:34:61,-66,1,1
17.32713770866394,dc:a6:32:82:34:61,-67,1,1
17.350937843322754,dc:a6:32:82:34:61,-67,1,1
17.413434982299805,dc:a6:32:82:34:61,-67,1,1
17.50344705581665,dc:a6:32:82:34:61,-66,1,1
17.567116737365723,dc:a6:32:82:34:61,-67,1,1
17.589685678482056,dc:a6:32:82:34:61,-67,1,1
17.655975103378296,dc:a6:32:82:34:61,-67,1,1
17.740947246551514,dc:a6:32:82:34:61,-67,1,1
17.8034508228302,dc:a6:32:82:34:61,-67,1,1
17.89347791671753,dc:a6:32:82:34:61,-67,1,1
17.954712390899658,dc:a6:32:82:34:61,-68,1,1
17.97970724105835,dc:a6:32:82:34:61,-67,1,1
18.042206287384033,dc:a6:32:82:34:61,-68,1,1
18.10472869873047,dc:a6:32:82:34:61,-67,1,1
18.235986471176147,dc:a6:32:82:34:61,-73,1,2
18.322221040725708,dc:a6:32:82:34:61,-73,1,2
18.385960340499878,dc:a6:32:82:34:61,-73,1,2
18.409697771072388,dc:a6:32:82:34:61,-73,1,2
18.473455667495728,dc:a6:32:82:34:61,-73,1,2
18.537165880203247,dc:a6:32:82:34:61,-74,1,2
18.64972758293152,dc:a6:32:82:34:61,-73,1,2
18.71471381187439,dc:a6:32:82:34:61,-73,1,2
18.803492546081543,dc:a6:32:82:34:61,-73,1,2
18.8647243976593,dc:a6:32:82:34:61,-74,1,2
18.92714524269104,dc:a6:32:82:34:61,-73,1,2
18.949722051620483,dc:a6:32:82:34:61,-73,1,2
19.016013383865356,dc:a6:32:82:34:61,-73,1,2
19.077157974243164,dc:a6:32:82:34:61,-73,1,2
19.224772453308105,dc:a6:32:82:34:61,-73,1,2
19.31348156929016,dc:a6:32:82:34:61,-73,1,2
19.40350317955017,dc:a6:32:82:34:61,-73,1,2
19.495991945266724,dc:a6:32:82:34:61,-73,1,2
19.58223867416382,dc:a6:32:82:34:61,-73,1,2
19.671025276184082,dc:a6:32:82:34:61,-73,1,2
19.733490705490112,dc:a6:32:82:34:61,-73,1,2
19.821001291275024,dc:a6:32:82:34:61,-73,1,2
19.885997772216797,dc:a6:32:82:34:61,-73,1,2
19.972245931625366,dc:a6:32:82:34:61,-73,1,2
20.06602692604065,dc:a6:32:82:34:61,-75,1,2
20.08974862098694,dc:a6:32:82:34:61,-73,1,2
20.153490781784058,dc:a6:32:82:34:61,-73,1,2
20.402430772781372,dc:a6:32:82:34:61,-65,1,4
20.46750044822693,dc:a6:32:82:34:61,-65,1,4
20.554877758026123,dc:a6:32:82:34:61,-65,1,4
20.64489197731018,dc:a6:32:82:34:61,-65,1,4
20.732385396957397,dc:a6:32:82:34:61,-66,1,4
20.819875478744507,dc:a6:32:82:34:61,-66,1,4
20.883630990982056,dc:a6:32:82:34:61,-65,1,4
20.943628787994385,dc:a6:32:82:34:61,-65,1,4
21.03239417076111,dc:a6:32:82:34:61,-65,1,4
21.12363839149475,dc:a6:32:82:34:61,-65,1,4
21.184881448745728,dc:a6:32:82:34:61,-65,1,4
21.273552894592285,dc:a6:32:82:34:61,-65,1,4
21.361042022705078,dc:a6:32:82:34:61,-65,1,4
21.427278518676758,dc:a6:32:82:34:61,-65,1,4
21.451040029525757,dc:a6:32:82:34:61,-66,1,4
21.516040563583374,dc:a6:32:82:34:61,-66,1,4
21.541030406951904,dc:a6:32:82:34:61,-65,1,4
21.631058931350708,dc:a6:32:82:34:61,-66,1,4
21.697257041931152,dc:a6:32:82:34:61,-66,1,4
21.71977210044861,dc:a6:32:82:34:61,-66,1,4
21.784801721572876,dc:a6:32:82:34:61,-66,1,4
21.873564958572388,dc:a6:32:82:34:61,-65,1,4
21.937265396118164,dc:a6:32:82:34:61,-65,1,4
21.961050748825073,dc:a6:32:82:34:61,-65,1,4
22.027336359024048,dc:a6:32:82:34:61,-65,1,4
22.052351236343384,dc:a6:32:82:34:61,-65,1,4
22.116121292114258,dc:a6:32:82:34:61,-65,1,4
22.203617572784424,dc:a6:32:82:34:61,-65,1,4
22.26485800743103,dc:a6:32:82:34:61,-65,1,4
22.28985071182251,dc:a6:32:82:34:61,-65,1,4
22.48115634918213,dc:a6:32:82:34:61,-67,1,1
22.544874906539917,dc:a6:32:82:34:61,-67,1,1
22.629884243011475,dc:a6:32:82:34:61,-67,1,1
22.693622827529907,dc:a6:32:82:34:61,-67,1,1
22.781129837036133,dc:a6:32:82:34:61,-67,1,1
22.843656063079834,dc:a6:32:82:34:61,-67,1,1
22.931131601333618,dc:a6:32:82:34:61,-68,1,1
22.99488091468811,dc:a6:32:82:34:61,-67,1,1
23.05612850189209,dc:a6:32:82:34:61,-67,1,1
23.142386436462402,dc:a6:32:82:34:61,-67,1,1
23.206133604049683,dc:a6:32:82:34:61,-67,1,1
23.23112440109253,dc:a6:32:82:34:61,-67,1,1
23.297351360321045,dc:a6:32:82:34:61,-66,1,1
23.379896879196167,dc:a6:32:82:34:61,-67,1,1
23.469890594482422,dc:a6:32:82:34:61,-67,1,1
23.537376880645752,dc:a6:32:82:34:61,-66,1,1
23.62239122390747,dc:a6:32:82:34:61,-67,1,1
23.71365237236023,dc:a6:32:82:34:61,-67,1,1
23.801154136657715,dc:a6:32:82:34:61,-67,1,1
23.866146087646484,dc:a6:32:82:34:61,-68,1,1
23.889886617660522,dc:a6:32:82:34:61,-67,1,1
23.949900150299072,dc:a6:32:82:34:61,-67,1,1
24.017375230789185,dc:a6:32:82:34:61,-67,1,1
24.041146516799927,dc:a6:32:82:34:61,-67,1,1
24.10615301132202,dc:a6:32:82:34:61,-67,1,1
24.129891872406006,dc:a6:32:82:34:61,-67,1,1
24.342429876327515,dc:a6:32:82:34:61,-66,1,1
24.431168794631958,dc:a6:32:82:34:61,-67,1,1
24.56741166114807,dc:a6:32:82:34:61,-73,1,2
24.651191473007202,dc:a6:32:82:34:61,-73,1,2
24.71367597579956,dc:a6:32:82:34:61,-72,1,2
24.801179885864258,dc:a6:32:82:34:61,-73,1,2
24.86615490913391,dc:a6:32:82:34:61,-73,1,2
24.891196966171265,dc:a6:32:82:34:61,-72,1,2
24.954926252365112,dc:a6:32:82:34:61,-72,1,2
25.041186571121216,dc:a6:32:82:34:61,-73,1,2
25.133687019348145,dc:a6:32:82:34:61,-73,1,2
25.224946975708008,dc:a6:32:82:34:61,-73,1,2
25.314943552017212,dc:a6:32:82:34:61,-73,1,2
25.403703689575195,dc:a6:32:82:34:61,-72,1,2
25.496225833892822,dc:a6:32:82:34:61,-73,1,2
25.581374406814575,dc:a6:32:82:34:61,-73,1,2
25.64383864402771,dc:a6:32:82:34:61,-73,1,2
25.70771288871765,dc:a6:32:82:34:61,-73,1,2
25.792569637298584,dc:a6:32:82:34:61,-73,1,2
25.857707023620605,dc:a6:32:82:34:61,-73,1,2
25.881301879882812,dc:a6:32:82:34:61,-73,1,2
25.97133493423462,dc:a6:32:82:34:61,-73,1,2
26.036346912384033,dc:a6:32:82:34:61,-73,1,2
26.1200909614563,dc:a6:32:82:34:61,-73,1,2
26.182565212249756,dc:a6:32:82:34:61,-73,1,2
26.24500608444214,dc:a6:32:82:34:61,-73,1,2
26.332478523254395,dc:a6:32:82:34:61,-73,1,2
26.397449493408203,dc:a6:32:82:34:61,-73,1,2
26.421189069747925,dc:a6:32:82:34:61,-73,1,2
26.482421398162842,dc:a6:32:82:34:61,-73,1,2
26.646185159683228,dc:a6:32:82:34:61,-65,1,4
26.733717441558838,dc:a6:32:82:34:61,-65,1,4
26.79740262031555,dc:a6:32:82:34:61,-65,1,4
26.881168127059937,dc:a6:32:82:34:61,-65,1,4
26.944953441619873,dc:a6:32:82:34:61,-65,1,4
27.033673524856567,dc:a6:32:82:34:61,-65,1,4
27.096173524856567,dc:a6:32:82:34:61,-65,1,4
27.181177377700806,dc:a6:32:82:34:61,-65,1,4
27.244916439056396,dc:a6:32:82:34:61,-65,1,4
27.307419538497925,dc:a6:32:82:34:61,-65,1,4
27.392465353012085,dc:a6:32:82:34:61,-65,1,4
27.483676433563232,dc:a6:32:82:34:61,-65,1,4
27.569963455200195,dc:a6:32:82:34:61,-65,1,4
27.636178016662598,dc:a6:32:82:34:61,-65,1,4
27.696187257766724,dc:a6:32:82:34:61,-65,1,4
27.71993327140808,dc:a6:32:82:34:61,-65,1,4
27.81373620033264,dc:a6:32:82:34:61,-65,1,4
27.9024600982666,dc:a6:32:82:34:61,-65,1,4
27.967435121536255,dc:a6:32:82:34:61,-65,1,4
27.99119257926941,dc:a6:32:82:34:61,-65,1,4
28.08123469352722,dc:a6:32:82:34:61,-65,1,4
28.1474130153656,dc:a6:32:82:34:61,-65,1,4
28.171190977096558,dc:a6:32:82:34:61,-65,1,4
28.236193656921387,dc:a6:32:82:34:61,-65,1,4
28.384962797164917,dc:a6:32:82:34:61,-65,1,4
28.47121262550354,dc:a6:32:82:34:61,-65,1,4
28.623732566833496,dc:a6:32:82:34:61,-65,1,4
28.75000309944153,dc:a6:32:82:34:61,-68,1,1
28.839974403381348,dc:a6:32:82:34:61,-68,1,1
28.90746021270752,dc:a6:32:82:34:61,-67,1,1
28.967535495758057,dc:a6:32:82:34:61,-67,1,1
28.991227388381958,dc:a6:32:82:34:61,-67,1,1
29.055015563964844,dc:a6:32:82:34:61,-66,1,1
29.143733501434326,dc:a6:32:82:34:61,-67,1,1
29.2049822807312,dc:a6:32:82:34:61,-67,1,1
29.26745891571045,dc:a6:32:82:34:61,-67,1,1
29.289984464645386,dc:a6:32:82:34:61,-67,1,1
29.382497787475586,dc:a6:32:82:34:61,-67,1,1
29.447468280792236,dc:a6:32:82:34:61,-67,1,1
29.47123408317566,dc:a6:32:82:34:61,-67,1,1
29.534992694854736,dc:a6:32:82:34:61,-67,1,1
29.62502431869507,dc:a6:32:82:34:61,-68,1,1
29.71138334274292,dc:a6:32:82:34:61,-68,1,1
29.777353763580322,dc:a6:32:82:34:61,-67,1,1
29.867334842681885,dc:a6:32:82:34:61,-67,1,1
29.89251947402954,dc:a6:32:82:34:61,-66,1,1
29.983792066574097,dc:a6:32:82:34:61,-66,1,1
30.070009231567383,dc:a6:32:82:34:61,-67,1,1
30.137484073638916,dc:a6:32:82:34:61,-67,1,1
30.22129774093628,dc:a6:32:82:34:61,-67,1,1
30.282504558563232,dc:a6:32:82:34:61,-67,1,1
30.37004327774048,dc:a6:32:82:34:61,-67,1,1
30.433778524398804,dc:a6:32:82:34:61,-67,1,1
30.52504801750183,dc:a6:32:82:34:61,-67,1,1
30.61780309677124,dc:a6:32:82:34:61,-67,1,1
30.642648935317993,dc:a6:32:82:34:61,-67,1,1
30.733908653259277,dc:a6:32:82:34:61,-67,1,1
30.896413564682007,dc:a6:32:82:34:61,-73,1,2
30.980165481567383,dc:a6:32:82:34:61,-72,1,2
31.04514980316162,dc:a6:32:82:34:61,-72,1,2
31.192708492279053,dc:a6:32:82:34:61,-74,1,2
31.256486415863037,dc:a6:32:82:34:61,-72,1,2
31.280155181884766,dc:a6:32:82:34:61,-72,1,2
31.343924045562744,dc:a6:32:82:34:61,-72,1,2
31.403857469558716,dc:a6:32:82:34:61,-73,1,2
31.46634292602539,dc:a6:32:82:34:61,-72,1,2
31.555065393447876,dc:a6:32:82:34:61,-74,1,2
31.64633846282959,dc:a6:32:82:34:61,-73,1,2
31.732585906982422,dc:a6:32:82:34:61,-73,1,2
31.82256770133972,dc:a6:32:82:34:61,-73,1,2
31.9138081073761,dc:a6:32:82:34:61,-72,1,2
32.00005102157593,dc:a6:32:82:34:61,-72,1,2
32.06758165359497,dc:a6:32:82:34:61,-72,1,2
32.156317710876465,dc:a6:32:82:34:61,-73,1,2
32.180062770843506,dc:a6:32:82:34:61,-72,1,2
32.24753546714783,dc:a6:32:82:34:61,-74,1,2
32.27131390571594,dc:a6:32:82:34:61,-72,1,2
32.3337984085083,dc:a6:32:82:34:61,-73,1,2
32.39513325691223,dc:a6:32:82:34:61,-73,1,2
32.48639154434204,dc:a6:32:82:34:61,-73,1,2
32.54637789726257,dc:a6:32:82:34:61,-73,1,2
32.632625341415405,dc:a6:32:82:34:61,-73,1,2
32.69259762763977,dc:a6:32:82:34:61,-73,1,2
32.783835649490356,dc:a6:32:82:34:61,-72,1,2
32.84635376930237,dc:a6:32:82:34:61,-72,1,2
33.00068807601929,dc:a6:32:82:34:61,-65,1,4
33.06177616119385,dc:a6:32:82:34:61,-65,1,4
33.125518798828125,dc:a6:32:82:34:61,-65,1,4
33.211761236190796,dc:a6:32:82:34:61,-65,1,4
33.27677917480469,dc:a6:32:82:34:61,-65,1,4
33.30034518241882,dc:a6:32:82:34:61,-65,1,4
33.36015605926514,dc:a6:32:82:34:61,-65,1,4
33.45265245437622,dc:a6:32:82:34:61,-65,1,4
33.516398191452026,dc:a6:32:82:34:61,-65,1,4
33.576393365859985,dc:a6:32:82:34:61,-65,1,4
33.66635251045227,dc:a6:32:82:34:61,-65,1,4
33.75135064125061,dc:a6:32:82:34:61,-65,1,4
33.81509280204773,dc:a6:32:82:34:61,-65,1,4
33.90384888648987,dc:a6:32:82:34:61,-65,1,4
33.992592573165894,dc:a6:32:82:34:61,-65,1,4
34.08509397506714,dc:a6:32:82:34:61,-65,1,4
34.17009472846985,dc:a6:32:82:34:61,-65,1,4
34.23634743690491,dc:a6:32:82:34:61,-65,1,4
34.32013392448425,dc:a6:32:82:34:61,-65,1,4
34.38259720802307,dc:a6:32:82:34:61,-65,1,4
34.447585582733154,dc:a6:32:82:34:61,-65,1,4
34.5313823223114,dc:a6:32:82:34:61,-65,1,4
34.59510564804077,dc:a6:32:82:34:61,-65,1,4
34.68011021614075,dc:a6:32:82:34:61,-65,1,4
34.74638271331787,dc:a6:32:82:34:61,-65,1,4
34.83009910583496,dc:a6:32:82:34:61,-65,1,4
34.89260983467102,dc:a6:32:82:34:61,-65,1,4
35.05762314796448,dc:a6:32:82:34:61,-67,1,1
35.08138084411621,dc:a6:32:82:34:61,-67,1,1
35.1738817691803,dc:a6:32:82:34:61,-67,1,1
35.26514220237732,dc:a6:32:82:34:61,-67,1,1
35.35262656211853,dc:a6:32:82:34:61,-67,1,1
35.44388747215271,dc:a6:32:82:34:61,-67,1,1
35.53267860412598,dc:a6:32:82:34:61,-67,1,1
35.62791967391968,dc:a6:32:82:34:61,-68,1,1
35.651493310928345,dc:a6:32:82:34:61,-67,1,1
35.74280142784119,dc:a6:32:82:34:61,-67,1,1
35.831520080566406,dc:a6:32:82:34:61,-66,1,1
35.89152145385742,dc:a6:32:82:34:61,-66,1,1
35.98401236534119,dc:a6:32:82:34:61,-67,1,1
36.04788255691528,dc:a6:32:82:34:61,-67,1,1
36.10789656639099,dc:a6:32:82:34:61,-67,1,1
36.25028085708618,dc:a6:32:82:34:61,-67,1,1
36.34276556968689,dc:a6:32:82:34:61,-67,1,1
36.46145415306091,dc:a6:32:82:34:61,-68,1,1
36.55017924308777,dc:a6:32:82:34:61,-68,1,1
36.61392521858215,dc:a6:32:82:34:61,-68,1,1
36.67393493652344,dc:a6:32:82:34:61,-67,1,1
36.76393437385559,dc:a6:32:82:34:61,-67,1,1
36.82768964767456,dc:a6:32:82:34:61,-67,1,1
36.910207986831665,dc:a6:32:82:34:61,-67,1,1
36.97765111923218,dc:a6:32:82:34:61,-66,1,1
37.16024351119995,dc:a6:32:82:34:61,-73,1,2
37.251444816589355,dc:a6:32:82:34:61,-73,1,2
37.31517958641052,dc:a6:32:82:34:61,-73,1,2
37.402708292007446,dc:a6:32:82:34:61,-73,1,2
37.49269127845764,dc:a6:32:82:34:61,-73,1,2
37.555196046829224,dc:a6:32:82:34:61,-73,1,2
37.64396548271179,dc:a6:32:82:34:61,-72,1,2
37.731443881988525,dc:a6:32:82:34:61,-73,1,2
37.797675371170044,dc:a6:32:82:34:61,-73,1,2
37.88769817352295,dc:a6:32:82:34:61,-73,1,2
37.94767355918884,dc:a6:32:82:34:61,-73,1,2
38.00767707824707,dc:a6:32:82:34:61,-73,1,2
38.03144121170044,dc:a6:32:82:34:61,-73,1,2
38.12024283409119,dc:a6:32:82:34:61,-73,1,2
38.185195446014404,dc:a6:32:82:34:61,-73,1,2
38.27145051956177,dc:a6:32:82:34:61,-73,1,2
38.33398151397705,dc:a6:32:82:34:61,-73,1,2
38.4252073764801,dc:a6:32:82:34:61,-73,1,2
38.486461877822876,dc:a6:32:82:34:61,-73,1,2
38.5464448928833,dc:a6:32:82:34:61,-73,1,2
38.635207176208496,dc:a6:32:82:34:61,-73,1,2
38.72647166252136,dc:a6:32:82:34:61,-74,1,2
38.905248165130615,dc:a6:32:82:34:61,-72,1,2
38.966469049453735,dc:a6:32:82:34:61,-73,1,2
39.336487770080566,dc:a6:32:82:34:61,-65,1,4
39.36021637916565,dc:a6:32:82:34:61,-65,1,4
39.514004945755005,dc:a6:32:82:34:61,-65,1,4
39.57521939277649,dc:a6:32:82:34:61,-65,1,4
39.63522481918335,dc:a6:32:82:34:61,-65,1,4
39.781490325927734,dc:a6:32:82:34:61,-65,1,4
39.875255823135376,dc:a6:32:82:34:61,-65,1,4
39.93647003173828,dc:a6:32:82:34:61,-65,1,4
39.96023178100586,dc:a6:32:82:34:61,-65,1,4
40.026490211486816,dc:a6:32:82:34:61,-65,1,4
40.11027002334595,dc:a6:32:82:34:61,-65,1,4
40.17150044441223,dc:a6:32:82:34:61,-65,1,4
40.32152462005615,dc:a6:32:82:34:61,-65,1,4
40.47774529457092,dc:a6:32:82:34:61,-65,1,4
40.50150108337402,dc:a6:32:82:34:61,-65,1,4
40.56530141830444,dc:a6:32:82:34:61,-65,1,4
40.59037947654724,dc:a6:32:82:34:61,-65,1,4
40.65800094604492,dc:a6:32:82:34:61,-65,1,4
40.68036651611328,dc:a6:32:82:34:61,-65,1,4
40.7453818321228,dc:a6:32:82:34:61,-65,1,4
40.83539032936096,dc:a6:32:82:34:61,-65,1,4
40.860379457473755,dc:a6:32:82:34:61,-65,1,4
40.9516396522522,dc:a6:32:82:34:61,-65,1,4
41.015382051467896,dc:a6:32:82:34:61,-65,1,4
41.07799768447876,dc:a6:32:82:34:61,-65,1,4
41.226606369018555,dc:a6:32:82:34:61,-65,1,4
41.38780736923218,dc:a6:32:82:34:61,-68,1,1
41.411540508270264,dc:a6:32:82:34:61,-67,1,1
41.47153997421265,dc:a6:32:82:34:61,-67,1,1
41.53778076171875,dc:a6:32:82:34:61,-67,1,1
41.56279015541077,dc:a6:32:82:34:61,-67,1,1
41.625296115875244,dc:a6:32:82:34:61,-67,1,1
41.68654727935791,dc:a6:32:82:34:61,-67,1,1
41.834065675735474,dc:a6:32:82:34:61,-66,1,1
41.92283654212952,dc:a6:32:82:34:61,-67,1,1
42.01281547546387,dc:a6:32:82:34:61,-67,1,1
42.1028048992157,dc:a6:32:82:34:61,-67,1,1
42.256600856781006,dc:a6:32:82:34:61,-68,1,1
42.37034797668457,dc:a6:32:82:34:61,-68,1,1
42.437790393829346,dc:a6:32:82:34:61,-67,1,1
42.460371255874634,dc:a6:32:82:34:61,-67,1,1
42.52158880233765,dc:a6:32:82:34:61,-67,1,1
42.586615562438965,dc:a6:32:82:34:61,-67,1,1
42.61156249046326,dc:a6:32:82:34:61,-67,1,1
42.677804708480835,dc:a6:32:82:34:61,-67,1,1
42.70282959938049,dc:a6:32:82:34:61,-67,1,1
42.790324211120605,dc:a6:32:82:34:61,-67,1,1
42.85783290863037,dc:a6:32:82:34:61,-67,1,1
42.88157677650452,dc:a6:32:82:34:61,-67,1,1
42.945335388183594,dc:a6:32:82:34:61,-67,1,1
43.03286123275757,dc:a6:32:82:34:61,-67,1,1
43.09408187866211,dc:a6:32:82:34:61,-67,1,1
43.15658450126648,dc:a6:32:82:34:61,-68,1,1
43.27286171913147,dc:a6:32:82:34:61,-68,1,1
43.33658981323242,dc:a6:32:82:34:61,-68,1,1
43.46785616874695,dc:a6:32:82:34:61,-73,1,2
43.55534553527832,dc:a6:32:82:34:61,-73,1,2
43.640347480773926,dc:a6:32:82:34:61,-74,1,2
43.70534563064575,dc:a6:32:82:34:61,-73,1,2
43.790380239486694,dc:a6:32:82:34:61,-73,1,2
44.001624584198,dc:a6:32:82:34:61,-73,1,2
44.091606855392456,dc:a6:32:82:34:61,-73,1,2
44.15659999847412,dc:a6:32:82:34:61,-73,1,2
44.24288988113403,dc:a6:32:82:34:61,-74,1,2
44.33037495613098,dc:a6:32:82:34:61,-74,1,2
44.39286828041077,dc:a6:32:82:34:61,-73,1,2
44.487924337387085,dc:a6:32:82:34:61,-73,1,2
44.5728702545166,dc:a6:32:82:34:61,-73,1,2
44.66286063194275,dc:a6:32:82:34:61,-74,1,2
44.754127979278564,dc:a6:32:82:34:61,-74,1,2
44.8416223526001,dc:a6:32:82:34:61,-73,1,2
44.9078733921051,dc:a6:32:82:34:61,-74,1,2
44.930370569229126,dc:a6:32:82:34:61,-73,1,2
44.99662685394287,dc:a6:32:82:34:61,-73,1,2
45.08288550376892,dc:a6:32:82:34:61,-73,1,2
45.14288401603699,dc:a6:32:82:34:61,-73,1,2
45.20537877082825,dc:a6:32:82:34:61,-74,1,2
45.23038625717163,dc:a6:32:82:34:61,-73,1,2
45.295384883880615,dc:a6:32:82:34:61,-73,1,2
45.357871532440186,dc:a6:32:82:34:61,-73,1,2
45.3816339969635,dc:a6:32:82:34:61,-73,1,2
45.447898387908936,dc:a6:32:82:34:61,-73,1,2
45.57045269012451,dc:a6:32:82:34:61,-65,1,4
45.66051650047302,dc:a6:32:82:34:61,-65,1,4
45.72813582420349,dc:a6:32:82:34:61,-65,1,4
45.75049638748169,dc:a6:32:82:34:61,-65,1,4
45.81676244735718,dc:a6:32:82:34:61,-65,1,4
45.908111572265625,dc:a6:32:82:34:61,-65,1,4
45.931716203689575,dc:a6:32:82:34:61,-65,1,4
45.99810862541199,dc:a6:32:82:34:61,-65,1,4
46.08423089981079,dc:a6:32:82:34:61,-65,1,4
46.14810562133789,dc:a6:32:82:34:61,-65,1,4
46.23671364784241,dc:a6:32:82:34:61,-65,1,4
46.327887773513794,dc:a6:32:82:34:61,-65,1,4
46.35039806365967,dc:a6:32:82:34:61,-65,1,4
46.417919397354126,dc:a6:32:82:34:61,-65,1,4
46.44291400909424,dc:a6:32:82:34:61,-65,1,4
46.507875204086304,dc:a6:32:82:34:61,-65,1,4
46.53165292739868,dc:a6:32:82:34:61,-65,1,4
46.62290811538696,dc:a6:32:82:34:61,-65,1,4
46.685407876968384,dc:a6:32:82:34:61,-65,1,4
46.776663064956665,dc:a6:32:82:34:61,-65,1,4
46.837889671325684,dc:a6:32:82:34:61,-65,1,4
46.86040425300598,dc:a6:32:82:34:61,-65,1,4
46.9229097366333,dc:a6:32:82:34:61,-65,1,4
46.987897872924805,dc:a6:32:82:34:61,-65,1,4
47.010398149490356,dc:a6:32:82:34:61,-65,1,4
47.074172258377075,dc:a6:32:82:34:61,-65,1,4
47.220417737960815,dc:a6:32:82:34:61,-65,1,4
47.28417086601257,dc:a6:32:82:34:61,-65,1,4
47.347893953323364,dc:a6:32:82:34:61,-65,1,4
47.43670034408569,dc:a6:32:82:34:61,-65,1,4
47.52417874336243,dc:a6:32:82:34:61,-65,1,4
47.71544122695923,dc:a6:32:82:34:61,-67,1,1
47.801698446273804,dc:a6:32:82:34:61,-67,1,1
47.86669301986694,dc:a6:32:82:34:61,-67,1,1
47.927913427352905,dc:a6:32:82:34:61,-67,1,1
48.01669764518738,dc:a6:32:82:34:61,-68,1,1
48.13045620918274,dc:a6:32:82:34:61,-68,1,1
48.19544315338135,dc:a6:32:82:34:61,-67,1,1
48.28169918060303,dc:a6:32:82:34:61,-67,1,1
48.3429536819458,dc:a6:32:82:34:61,-66,1,1
48.40670657157898,dc:a6:32:82:34:61,-67,1,1
48.431702852249146,dc:a6:32:82:34:61,-67,1,1
48.52171444892883,dc:a6:32:82:34:61,-67,1,1
48.58546543121338,dc:a6:32:82:34:61,-67,1,1
48.6467080116272,dc:a6:32:82:34:61,-67,1,1
48.706706523895264,dc:a6:32:82:34:61,-67,1,1
48.730459451675415,dc:a6:32:82:34:61,-67,1,1
48.821709632873535,dc:a6:32:82:34:61,-67,1,1
48.88671350479126,dc:a6:32:82:34:61,-67,1,1
48.947962284088135,dc:a6:32:82:34:61,-67,1,1
48.97046113014221,dc:a6:32:82:34:61,-67,1,1
49.062973737716675,dc:a6:32:82:34:61,-68,1,1
49.15048170089722,dc:a6:32:82:34:61,-67,1,1
49.21297836303711,dc:a6:32:82:34:61,-67,1,1
49.30047082901001,dc:a6:32:82:34:61,-67,1,1
49.36672925949097,dc:a6:32:82:34:61,-66,1,1
49.45549249649048,dc:a6:32:82:34:61,-67,1,1
49.515496492385864,dc:a6:32:82:34:61,-67,1,1
49.60298991203308,dc:a6:32:82:34:61,-67,1,1
49.66548728942871,dc:a6:32:82:34:61,-67,1,1
49.88049554824829,dc:a6:32:82:34:61,-73,1,2
50.03799033164978,dc:a6:32:82:34:61,-73,1,2
50.12550640106201,dc:a6:32:82:34:61,-73,1,2
50.21426725387573,dc:a6:32:82:34:61,-73,1,2
50.27676486968994,dc:a6:32:82:34:61,-73,1,2
50.363009214401245,dc:a6:32:82:34:61,-73,1,2
50.42550706863403,dc:a6:32:82:34:61,-73,1,2
50.541858196258545,dc:a6:32:82:34:61,-74,1,2
50.60310220718384,dc:a6:32:82:34:61,-73,1,2
50.6682505607605,dc:a6:32:82:34:61,-73,1,2
50.72825741767883,dc:a6:32:82:34:61,-73,1,2
50.81434988975525,dc:a6:32:82:34:61,-73,1,2
50.876938343048096,dc:a6:32:82:34:61,-73,1,2
50.900654792785645,dc:a6:32:82:34:61,-73,1,2
50.96440362930298,dc:a6:32:82:34:61,-74,1,2
51.05190062522888,dc:a6:32:82:34:61,-73,1,2
51.14065861701965,dc:a6:32:82:34:61,-74,1,2
51.20694136619568,dc:a6:32:82:34:61,-73,1,2
51.29190278053284,dc:a6:32:82:34:61,-74,1,2
51.35431694984436,dc:a6:32:82:34:61,-73,1,2
51.41804385185242,dc:a6:32:82:34:61,-73,1,2
51.50180745124817,dc:a6:32:82:34:61,-73,1,2
51.564289569854736,dc:a6:32:82:34:61,-73,1,2
51.65557074546814,dc:a6:32:82:34:61,-73,1,2
51.716806411743164,dc:a6:32:82:34:61,-73,1,2
51.878018617630005,dc:a6:32:82:34:61,-65,1,4
51.96801996231079,dc:a6:32:82:34:61,-65,1,4
51.993040800094604,dc:a6:32:82:34:61,-65,1,4
52.080562591552734,dc:a6:32:82:34:61,-65,1,4
52.236820936203,dc:a6:32:82:34:61,-65,1,4
52.324310302734375,dc:a6:32:82:34:61,-65,1,4
52.388031005859375,dc:a6:32:82:34:61,-65,1,4
52.41054940223694,dc:a6:32:82:34:61,-65,1,4
52.50306558609009,dc:a6:32:82:34:61,-65,1,4
52.56802678108215,dc:a6:32:82:34:61,-65,1,4
52.6580445766449,dc:a6:32:82:34:61,-65,1,4
52.68181777000427,dc:a6:32:82:34:61,-65,1,4
52.77307176589966,dc:a6:32:82:34:61,-65,1,4
52.836819887161255,dc:a6:32:82:34:61,-65,1,4
52.86056566238403,dc:a6:32:82:34:61,-65,1,4
52.92307448387146,dc:a6:32:82:34:61,-65,1,4
52.98682737350464,dc:a6:32:82:34:61,-65,1,4
53.01055383682251,dc:a6:32:82:34:61,-65,1,4
53.10307431221008,dc:a6:32:82:34:61,-65,1,4
53.19432187080383,dc:a6:32:82:34:61,-65,1,4
53.2805757522583,dc:a6:32:82:34:61,-65,1,4
53.34307646751404,dc:a6:32:82:34:61,-65,1,4
53.43558621406555,dc:a6:32:82:34:61,-65,1,4
53.5243284702301,dc:a6:32:82:34:61,-65,1,4
53.61558485031128,dc:a6:32:82:34:61,-66,1,4
53.70311713218689,dc:a6:32:82:34:61,-65,1,4
53.76683855056763,dc:a6:32:82:34:61,-65,1,4
53.98060631752014,dc:a6:32:82:34:61,-67,1,1
54.04685425758362,dc:a6:32:82:34:61,-67,1,1
54.13060188293457,dc:a6:32:82:34:61,-67,1,1
54.19560480117798,dc:a6:32:82:34:61,-67,1,1
54.25562000274658,dc:a6:32:82:34:61,-66,1,1
54.31562089920044,dc:a6:32:82:34:61,-67,1,1
54.340609550476074,dc:a6:32:82:34:61,-67,1,1
54.406858682632446,dc:a6:32:82:34:61,-67,1,1
54.49561858177185,dc:a6:32:82:34:61,-67,1,1
54.55687618255615,dc:a6:32:82:34:61,-67,1,1
54.64687514305115,dc:a6:32:82:34:61,-67,1,1
54.67185974121094,dc:a6:32:82:34:61,-67,1,1
54.734370946884155,dc:a6:32:82:34:61,-67,1,1
54.79687690734863,dc:a6:32:82:34:61,-68,1,1
54.91312885284424,dc:a6:32:82:34:61,-67,1,1
55.00062561035156,dc:a6:32:82:34:61,-66,1,1
55.068073749542236,dc:a6:32:82:34:61,-67,1,1
55.090627908706665,dc:a6:32:82:34:61,-67,1,1
55.1568763256073,dc:a6:32:82:34:61,-66,1,1
55.24063539505005,dc:a6:32:82:34:61,-67,1,1
55.304388999938965,dc:a6:32:82:34:61,-67,1,1
55.39314365386963,dc:a6:32:82:34:61,-67,1,1
55.48314666748047,dc:a6:32:82:34:61,-67,1,1
55.546879529953,dc:a6:32:82:34:61,-67,1,1
55.69193625450134,dc:a6:32:82:34:61,-68,1,1
55.78579640388489,dc:a6:32:82:34:61,-68,1,1
55.87703990936279,dc:a6:32:82:34:61,-67,1,1
55.96331024169922,dc:a6:32:82:34:61,-67,1,1
56.12454104423523,dc:a6:32:82:34:61,-73,1,2
56.18821978569031,dc:a6:32:82:34:61,-73,1,2
56.24821496009827,dc:a6:32:82:34:61,-73,1,2
56.27203154563904,dc:a6:32:82:34:61,-73,1,2
56.33455300331116,dc:a6:32:82:34:61,-73,1,2
56.39705467224121,dc:a6:32:82:34:61,-73,1,2
56.422040939331055,dc:a6:32:82:34:61,-73,1,2
56.48571181297302,dc:a6:32:82:34:61,-74,1,2
56.57319521903992,dc:a6:32:82:34:61,-73,1,2
56.638115882873535,dc:a6:32:82:34:61,-73,1,2
56.72317910194397,dc:a6:32:82:34:61,-74,1,2
56.81193542480469,dc:a6:32:82:34:61,-73,1,2
56.90193700790405,dc:a6:32:82:34:61,-73,1,2
56.99318981170654,dc:a6:32:82:34:61,-73,1,2
57.0569326877594,dc:a6:32:82:34:61,-73,1,2
57.143179178237915,dc:a6:32:82:34:61,-73,1,2
57.205689668655396,dc:a6:32:82:34:61,-73,1,2
57.29811644554138,dc:a6:32:82:34:61,-73,1,2
57.323179960250854,dc:a6:32:82:34:61,-73,1,2
57.38693046569824,dc:a6:32:82:34:61,-73,1,2
57.470710039138794,dc:a6:32:82:34:61,-73,1,2
57.53693985939026,dc:a6:32:82:34:61,-73,1,2
57.621949434280396,dc:a6:32:82:34:61,-73,1,2
57.685704708099365,dc:a6:32:82:34:61,-74,1,2
57.74696135520935,dc:a6:32:82:34:61,-73,1,2
57.770697832107544,dc:a6:32:82:34:61,-73,1,2
57.86572504043579,dc:a6:32:82:34:61,-73,1,2
57.95445919036865,dc:a6:32:82:34:61,-73,1,2
58.015716791152954,dc:a6:32:82:34:61,-73,1,2
58.20694923400879,dc:a6:32:82:34:61,-65,1,4
58.29194712638855,dc:a6:32:82:34:61,-65,1,4
58.35445213317871,dc:a6:32:82:34:61,-65,1,4
58.44195532798767,dc:a6:32:82:34:61,-65,1,4
58.5332133769989,dc:a6:32:82:34:61,-65,1,4
58.620712757110596,dc:a6:32:82:34:61,-65,1,4
58.68696403503418,dc:a6:32:82:34:61,-65,1,4
58.7719624042511,dc:a6:32:82:34:61,-65,1,4
58.835710525512695,dc:a6:32:82:34:61,-65,1,4
58.89696168899536,dc:a6:32:82:34:61,-65,1,4
58.983224868774414,dc:a6:32:82:34:61,-65,1,4
59.0481595993042,dc:a6:32:82:34:61,-65,1,4
59.16072487831116,dc:a6:32:82:34:61,-65,1,4
59.226966857910156,dc:a6:32:82:34:61,-65,1,4
59.25072193145752,dc:a6:32:82:34:61,-65,1,4
59.34072399139404,dc:a6:32:82:34:61,-65,1,4
59.40198111534119,dc:a6:32:82:34:61,-65,1,4
59.46448063850403,dc:a6:32:82:34:61,-65,1,4
59.554481983184814,dc:a6:32:82:34:61,-65,1,4
59.64324450492859,dc:a6:32:82:34:61,-65,1,4
59.730740547180176,dc:a6:32:82:34:61,-65,1,4
59.82448983192444,dc:a6:32:82:34:61,-65,1,4
59.912107706069946,dc:a6:32:82:34:61,-65,1,4
59.97217845916748,dc:a6:32:82:34:61,-65,1,4
60.03689908981323,dc:a6:32:82:34:61,-65,1,4
60.12927222251892,dc:a6:32:82:34:61,-65,1,4
60.28822898864746,dc:a6:32:82:34:61,-68,1,1
60.31452202796936,dc:a6:32:82:34:61,-68,1,1
60.37702512741089,dc:a6:32:82:34:61,-67,1,1
60.46452736854553,dc:a6:32:82:34:61,-68,1,1
60.55821228027344,dc:a6:32:82:34:61,-67,1,1
60.58202648162842,dc:a6:32:82:34:61,-67,1,1
60.645878076553345,dc:a6:32:82:34:61,-67,1,1
60.7394802570343,dc:a6:32:82:34:61,-67,1,1
60.7634379863739,dc:a6:32:82:34:61,-67,1,1
60.854676723480225,dc:a6:32:82:34:61,-67,1,1
60.917181968688965,dc:a6:32:82:34:61,-67,1,1
60.94215655326843,dc:a6:32:82:34:61,-67,1,1
61.0083384513855,dc:a6:32:82:34:61,-67,1,1
61.03093147277832,dc:a6:32:82:34:61,-67,1,1
61.095908403396606,dc:a6:32:82:34:61,-67,1,1
61.15954804420471,dc:a6:32:82:34:61,-67,1,1
61.18339419364929,dc:a6:32:82:34:61,-67,1,1
61.24587559700012,dc:a6:32:82:34:61,-68,1,1
61.30947256088257,dc:a6:32:82:34:61,-67,1,1
61.420823097229004,dc:a6:32:82:34:61,-68,1,1
61.484559297561646,dc:a6:32:82:34:61,-68,1,1
61.57080292701721,dc:a6:32:82:34:61,-67,1,1
61.63456702232361,dc:a6:32:82:34:61,-67,1,1
61.6970591545105,dc:a6:32:82:34:61,-67,1,1
61.720805406570435,dc:a6:32:82:34:61,-67,1,1
61.78330087661743,dc:a6:32:82:34:61,-67,1,1
61.875815868377686,dc:a6:32:82:34:61,-67,1,1
61.93824028968811,dc:a6:32:82:34:61,-67,1,1
61.96329665184021,dc:a6:32:82:34:61,-67,1,1
62.05825901031494,dc:a6:32:82:34:61,-67,1,1
62.08080863952637,dc:a6:32:82:34:61,-67,1,1
62.14706254005432,dc:a6:32:82:34:61,-67,1,1
62.17206144332886,dc:a6:32:82:34:61,-67,1,1
62.26331615447998,dc:a6:32:82:34:61,-67,1,1
62.3908212184906,dc:a6:32:82:34:61,-73,1,2
62.45946502685547,dc:a6:32:82:34:61,-73,1,2
62.48083162307739,dc:a6:32:82:34:61,-73,1,2
62.54824614524841,dc:a6:32:82:34:61,-73,1,2
62.570821046829224,dc:a6:32:82:34:61,-73,1,2
62.63458561897278,dc:a6:32:82:34:61,-73,1,2
62.722081899642944,dc:a6:32:82:34:61,-73,1,2
62.810829401016235,dc:a6:32:82:34:61,-73,1,2
62.874596118927,dc:a6:32:82:34:61,-73,1,2
62.962095975875854,dc:a6:32:82:34:61,-73,1,2
63.05209159851074,dc:a6:32:82:34:61,-73,1,2
63.11948347091675,dc:a6:32:82:34:61,-73,1,2
63.14207887649536,dc:a6:32:82:34:61,-73,1,2
63.20827507972717,dc:a6:32:82:34:61,-73,1,2
63.29459309577942,dc:a6:32:82:34:61,-73,1,2
63.359480142593384,dc:a6:32:82:34:61,-73,1,2
63.44708776473999,dc:a6:32:82:34:61,-73,1,2
63.5646185874939,dc:a6:32:82:34:61,-73,1,2
63.65209722518921,dc:a6:32:82:34:61,-73,1,2
63.71459984779358,dc:a6:32:82:34:61,-73,1,2
63.77831172943115,dc:a6:32:82:34:61,-73,1,2
63.862104415893555,dc:a6:32:82:34:61,-73,1,2
63.92460918426514,dc:a6:32:82:34:61,-73,1,2
64.01586437225342,dc:a6:32:82:34:61,-73,1,2
64.10587167739868,dc:a6:32:82:34:61,-73,1,2
64.19712162017822,dc:a6:32:82:34:61,-74,1,2
64.28951692581177,dc:a6:32:82:34:61,-73,1,2
64.31460857391357,dc:a6:32:82:34:61,-73,1,2
64.37587857246399,dc:a6:32:82:34:61,-73,1,2
64.53586602210999,dc:a6:32:82:34:61,-65,1,4
64.62711143493652,dc:a6:32:82:34:61,-65,1,4
64.71212959289551,dc:a6:32:82:34:61,-65,1,4
64.77830457687378,dc:a6:32:82:34:61,-65,1,4
64.86710953712463,dc:a6:32:82:34:61,-65,1,4
64.9582986831665,dc:a6:32:82:34:61,-65,1,4
65.04587268829346,dc:a6:32:82:34:61,-65,1,4
65.13587594032288,dc:a6:32:82:34:61,-65,1,4
65.22336840629578,dc:a6:32:82:34:61,-65,1,4
65.28463125228882,dc:a6:32:82:34:61,-65,1,4
65.37336730957031,dc:a6:32:82:34:61,-65,1,4
65.46338105201721,dc:a6:32:82:34:61,-65,1,4
65.52713370323181,dc:a6:32:82:34:61,-65,1,4
65.61954355239868,dc:a6:32:82:34:61,-65,1,4
65.6433835029602,dc:a6:32:82:34:61,-65,1,4
65.70832896232605,dc:a6:32:82:34:61,-65,1,4
65.73212552070618,dc:a6:32:82:34:61,-65,1,4
65.79717707633972,dc:a6:32:82:34:61,-65,1,4
65.88227200508118,dc:a6:32:82:34:61,-65,1,4
65.94844222068787,dc:a6:32:82:34:61,-65,1,4
65.97225856781006,dc:a6:32:82:34:61,-65,1,4
66.03351187705994,dc:a6:32:82:34:61,-65,1,4
66.09478902816772,dc:a6:32:82:34:61,-65,1,4
66.15845108032227,dc:a6:32:82:34:61,-65,1,4
66.24601554870605,dc:a6:32:82:34:61,-65,1,4
66.3335452079773,dc:a6:32:82:34:61,-65,1,4
66.3947684764862,dc:a6:32:82:34:61,-65,1,4
66.45843386650085,dc:a6:32:82:34:61,-65,1,4
66.64469718933105,dc:a6:32:82:34:61,-67,1,1
66.70470762252808,dc:a6:32:82:34:61,-67,1,1
66.76836442947388,dc:a6:32:82:34:61,-67,1,1
66.82960247993469,dc:a6:32:82:34:61,-67,1,1
66.85218548774719,dc:a6:32:82:34:61,-67,1,1
66.91957569122314,dc:a6:32:82:34:61,-67,1,1
66.97957968711853,dc:a6:32:82:34:61,-68,1,1
67.0021915435791,dc:a6:32:82:34:61,-68,1,1
67.06470108032227,dc:a6:32:82:34:61,-68,1,1
67.15219783782959,dc:a6:32:82:34:61,-67,1,1
67.21725988388062,dc:a6:32:82:34:61,-67,1,1
67.30470824241638,dc:a6:32:82:34:61,-66,1,1
67.39344334602356,dc:a6:32:82:34:61,-67,1,1
67.48345708847046,dc:a6:32:82:34:61,-67,1,1
67.54594850540161,dc:a6:32:82:34:61,-67,1,1
67.60839343070984,dc:a6:32:82:34:61,-67,1,1
67.63220047950745,dc:a6:32:82:34:61,-67,1,1
67.72594857215881,dc:a6:32:82:34:61,-67,1,1
67.8121976852417,dc:a6:32:82:34:61,-67,1,1
67.87961173057556,dc:a6:32:82:34:61,-68,1,1
67.90345883369446,dc:a6:32:82:34:61,-68,1,1
67.96725988388062,dc:a6:32:82:34:61,-68,1,1
67.99093985557556,dc:a6:32:82:34:61,-68,1,1
68.05597019195557,dc:a6:32:82:34:61,-67,1,1
68.14096283912659,dc:a6:32:82:34:61,-67,1,1
68.20596241950989,dc:a6:32:82:34:61,-67,1,1
68.29599046707153,dc:a6:32:82:34:61,-67,1,1
68.38597130775452,dc:a6:32:82:34:61,-67,1,1
68.4759681224823,dc:a6:32:82:34:61,-67,1,1
68.56840014457703,dc:a6:32:82:34:61,-67,1,1
68.59221005439758,dc:a6:32:82:34:61,-67,1,1
68.69841623306274,dc:a6:32:82:34:61,-73,1,2
68.72221827507019,dc:a6:32:82:34:61,-73,1,2
68.78727412223816,dc:a6:32:82:34:61,-73,1,2
68.8484034538269,dc:a6:32:82:34:61,-75,1,2
68.87224006652832,dc:a6:32:82:34:61,-73,1,2
68.9609899520874,dc:a6:32:82:34:61,-73,1,2
69.0209813117981,dc:a6:32:82:34:61,-73,1,2
69.08962368965149,dc:a6:32:82:34:61,-73,1,2
69.11223101615906,dc:a6:32:82:34:61,-73,1,2
69.1734848022461,dc:a6:32:82:34:61,-73,1,2
69.260990858078,dc:a6:32:82:34:61,-73,1,2
69.3247423171997,dc:a6:32:82:34:61,-73,1,2
69.4184250831604,dc:a6:32:82:34:61,-73,1,2
69.44349527359009,dc:a6:32:82:34:61,-73,1,2
69.5060498714447,dc:a6:32:82:34:61,-73,1,2
69.59475326538086,dc:a6:32:82:34:61,-73,1,2
69.68350958824158,dc:a6:32:82:34:61,-73,1,2
69.74477291107178,dc:a6:32:82:34:61,-73,1,2
69.8096535205841,dc:a6:32:82:34:61,-73,1,2
69.8696517944336,dc:a6:32:82:34:61,-73,1,2
69.95101881027222,dc:a6:32:82:34:61,-73,1,2
70.01965236663818,dc:a6:32:82:34:61,-73,1,2
70.0410099029541,dc:a6:32:82:34:61,-73,1,2
70.10731434822083,dc:a6:32:82:34:61,-73,1,2
70.19351029396057,dc:a6:32:82:34:61,-73,1,2
70.25601291656494,dc:a6:32:82:34:61,-74,1,2
70.31967973709106,dc:a6:32:82:34:61,-73,1,2
70.3447654247284,dc:a6:32:82:34:61,-73,1,2
70.43734765052795,dc:a6:32:82:34:61,-73,1,2
70.49967336654663,dc:a6:32:82:34:61,-75,1,2
70.52227020263672,dc:a6:32:82:34:61,-73,1,2
70.58731865882874,dc:a6:32:82:34:61,-73,1,2
70.64967107772827,dc:a6:32:82:34:61,-73,1,2
70.6710193157196,dc:a6:32:82:34:61,-73,1,2
70.80106520652771,dc:a6:32:82:34:61,-65,1,4
70.86978363990784,dc:a6:32:82:34:61,-65,1,4
70.95614171028137,dc:a6:32:82:34:61,-65,1,4
71.01857590675354,dc:a6:32:82:34:61,-65,1,4
71.10363793373108,dc:a6:32:82:34:61,-65,1,4
71.16860818862915,dc:a6:32:82:34:61,-65,1,4
71.1923999786377,dc:a6:32:82:34:61,-65,1,4
71.25614428520203,dc:a6:32:82:34:61,-65,1,4
71.28114056587219,dc:a6:32:82:34:61,-65,1,4
71.34614109992981,dc:a6:32:82:34:61,-65,1,4
71.4061348438263,dc:a6:32:82:34:61,-65,1,4
71.46849822998047,dc:a6:32:82:34:61,-65,1,4
71.52848219871521,dc:a6:32:82:34:61,-65,1,4
71.58968615531921,dc:a6:32:82:34:61,-65,1,4
71.64969539642334,dc:a6:32:82:34:61,-65,1,4
71.73106336593628,dc:a6:32:82:34:61,-65,1,4
71.79740715026855,dc:a6:32:82:34:61,-65,1,4
71.88479900360107,dc:a6:32:82:34:61,-65,1,4
71.94969749450684,dc:a6:32:82:34:61,-65,1,4
72.03850102424622,dc:a6:32:82:34:61,-65,1,4
72.12105298042297,dc:a6:32:82:34:61,-65,1,4
72.18480277061462,dc:a6:32:82:34:61,-65,1,4
72.24741983413696,dc:a6:32:82:34:61,-65,1,4
72.33231687545776,dc:a6:32:82:34:61,-65,1,4
72.39483070373535,dc:a6:32:82:34:61,-65,1,4
72.4885036945343,dc:a6:32:82:34:61,-65,1,4
72.5135645866394,dc:a6:32:82:34:61,-65,1,4
72.57970356941223,dc:a6:32:82:34:61,-65,1,4
72.60480880737305,dc:a6:32:82:34:61,-65,1,4
72.66970777511597,dc:a6:32:82:34:61,-65,1,4
72.69482254981995,dc:a6:32:82:34:61,-65,1,4
72.78737878799438,dc:a6:32:82:34:61,-65,1,4
72.94485783576965,dc:a6:32:82:34:61,-67,1,1
73.0073971748352,dc:a6:32:82:34:61,-66,1,1
73.09611487388611,dc:a6:32:82:34:61,-67,1,1
73.18739676475525,dc:a6:32:82:34:61,-67,1,1
73.27359914779663,dc:a6:32:82:34:61,-67,1,1
73.33974695205688,dc:a6:32:82:34:61,-67,1,1
73.36359477043152,dc:a6:32:82:34:61,-67,1,1
73.45110535621643,dc:a6:32:82:34:61,-67,1,1
73.51852512359619,dc:a6:32:82:34:61,-67,1,1
73.60359930992126,dc:a6:32:82:34:61,-68,1,1
73.66740822792053,dc:a6:32:82:34:61,-67,1,1
73.72974634170532,dc:a6:32:82:34:61,-67,1,1
73.75234723091125,dc:a6:32:82:34:61,-67,1,1
73.81974267959595,dc:a6:32:82:34:61,-67,1,1
73.84360027313232,dc:a6:32:82:34:61,-67,1,1
73.90974926948547,dc:a6:32:82:34:61,-67,1,1
73.93359708786011,dc:a6:32:82:34:61,-66,1,1
73.99611306190491,dc:a6:32:82:34:61,-67,1,1
74.0874559879303,dc:a6:32:82:34:61,-67,1,1
74.14976096153259,dc:a6:32:82:34:61,-67,1,1
74.23361039161682,dc:a6:32:82:34:61,-67,1,1
74.32611870765686,dc:a6:32:82:34:61,-67,1,1
74.41486954689026,dc:a6:32:82:34:61,-68,1,1
74.50363874435425,dc:a6:32:82:34:61,-68,1,1
74.59113502502441,dc:a6:32:82:34:61,-66,1,1
74.6523826122284,dc:a6:32:82:34:61,-67,1,1
74.71743965148926,dc:a6:32:82:34:61,-67,1,1
74.74112367630005,dc:a6:32:82:34:61,-67,1,1
74.83742189407349,dc:a6:32:82:34:61,-67,1,1
74.86112856864929,dc:a6:32:82:34:61,-67,1,1
75.02746963500977,dc:a6:32:82:34:61,-73,1,2
75.118581533432,dc:a6:32:82:34:61,-73,1,2
75.14114117622375,dc:a6:32:82:34:61,-73,1,2
75.20364260673523,dc:a6:32:82:34:61,-73,1,2
75.26614880561829,dc:a6:32:82:34:61,-73,1,2
75.35239768028259,dc:a6:32:82:34:61,-73,1,2
75.41978645324707,dc:a6:32:82:34:61,-73,1,2
75.5061559677124,dc:a6:32:82:34:61,-73,1,2
75.59746241569519,dc:a6:32:82:34:61,-77,1,2
75.68240523338318,dc:a6:32:82:34:61,-73,1,2
75.74860072135925,dc:a6:32:82:34:61,-73,1,2
75.77115154266357,dc:a6:32:82:34:61,-73,1,2
75.83619213104248,dc:a6:32:82:34:61,-73,1,2
75.9250385761261,dc:a6:32:82:34:61,-73,1,2
76.01378583908081,dc:a6:32:82:34:61,-73,1,2
76.07627248764038,dc:a6:32:82:34:61,-73,1,2
76.10127282142639,dc:a6:32:82:34:61,-73,1,2
76.16378021240234,dc:a6:32:82:34:61,-73,1,2
76.25762820243835,dc:a6:32:82:34:61,-73,1,2
76.34380221366882,dc:a6:32:82:34:61,-74,1,2
76.40505385398865,dc:a6:32:82:34:61,-73,1,2
76.4699501991272,dc:a6:32:82:34:61,-73,1,2
76.49502539634705,dc:a6:32:82:34:61,-73,1,2
76.55754351615906,dc:a6:32:82:34:61,-73,1,2
76.64497494697571,dc:a6:32:82:34:61,-73,1,2
76.73121285438538,dc:a6:32:82:34:61,-73,1,2
76.79620122909546,dc:a6:32:82:34:61,-73,1,2
76.85865139961243,dc:a6:32:82:34:61,-73,1,2
76.94620418548584,dc:a6:32:82:34:61,-73,1,2
77.1086277961731,dc:a6:32:82:34:61,-65,1,4
77.13119435310364,dc:a6:32:82:34:61,-65,1,4
77.19751238822937,dc:a6:32:82:34:61,-65,1,4
77.28246808052063,dc:a6:32:82:34:61,-65,1,4
77.37120914459229,dc:a6:32:82:34:61,-65,1,4
77.43370318412781,dc:a6:32:82:34:61,-65,1,4
77.49752235412598,dc:a6:32:82:34:61,-65,1,4
77.52121090888977,dc:a6:32:82:34:61,-65,1,4
77.58998441696167,dc:a6:32:82:34:61,-65,1,4
77.61119961738586,dc:a6:32:82:34:61,-65,1,4
77.67495846748352,dc:a6:32:82:34:61,-65,1,4
77.76496744155884,dc:a6:32:82:34:61,-65,1,4
77.82751178741455,dc:a6:32:82:34:61,-65,1,4
77.88751339912415,dc:a6:32:82:34:61,-65,1,4
77.9749653339386,dc:a6:32:82:34:61,-65,1,4
78.06247305870056,dc:a6:32:82:34:61,-65,1,4
78.15872979164124,dc:a6:32:82:34:61,-65,1,4
78.24625873565674,dc:a6:32:82:34:61,-65,1,4
78.33498525619507,dc:a6:32:82:34:61,-65,1,4
78.39755821228027,dc:a6:32:82:34:61,-65,1,4
78.48866605758667,dc:a6:32:82:34:61,-65,1,4
78.57500910758972,dc:a6:32:82:34:61,-65,1,4
78.6625108718872,dc:a6:32:82:34:61,-65,1,4
78.75124979019165,dc:a6:32:82:34:61,-65,1,4
78.81757426261902,dc:a6:32:82:34:61,-65,1,4
78.84124159812927,dc:a6:32:82:34:61,-65,1,4
78.9037413597107,dc:a6:32:82:34:61,-65,1,4
78.96501874923706,dc:a6:32:82:34:61,-65,1,4
79.02755093574524,dc:a6:32:82:34:61,-65,1,4
79.21127510070801,dc:a6:32:82:34:61,-68,1,1
79.27502059936523,dc:a6:32:82:34:61,-67,1,1
79.33760094642639,dc:a6:32:82:34:61,-67,1,1
79.36252093315125,dc:a6:32:82:34:61,-67,1,1
79.42626714706421,dc:a6:32:82:34:61,-66,1,1
79.51376366615295,dc:a6:32:82:34:61,-67,1,1
79.60503792762756,dc:a6:32:82:34:61,-67,1,1
79.69627976417542,dc:a6:32:82:34:61,-67,1,1
79.8137879371643,dc:a6:32:82:34:61,-67,1,1
79.90378069877625,dc:a6:32:82:34:61,-67,1,1
79.96870017051697,dc:a6:32:82:34:61,-67,1,1
79.9937789440155,dc:a6:32:82:34:61,-67,1,1
80.05761003494263,dc:a6:32:82:34:61,-68,1,1
80.14503765106201,dc:a6:32:82:34:61,-67,1,1
80.20503997802734,dc:a6:32:82:34:61,-67,1,1
80.27006840705872,dc:a6:32:82:34:61,-67,1,1
80.29128527641296,dc:a6:32:82:34:61,-67,1,1
80.35872340202332,dc:a6:32:82:34:61,-67,1,1
80.41873383522034,dc:a6:32:82:34:61,-67,1,1
80.48006224632263,dc:a6:32:82:34:61,-67,1,1
80.50128269195557,dc:a6:32:82:34:61,-66,1,1
80.56504130363464,dc:a6:32:82:34:61,-67,1,1
80.65504217147827,dc:a6:32:82:34:61,-67,1,1
80.74874329566956,dc:a6:32:82:34:61,-67,1,1
80.8314106464386,dc:a6:32:82:34:61,-67,1,1
80.89788126945496,dc:a6:32:82:34:61,-68,1,1
80.92266011238098,dc:a6:32:82:34:61,-67,1,1
80.9851884841919,dc:a6:32:82:34:61,-68,1,1
81.04886174201965,dc:a6:32:82:34:61,-67,1,1
81.13518524169922,dc:a6:32:82:34:61,-67,1,1
81.20020890235901,dc:a6:32:82:34:61,-67,1,1
81.35886406898499,dc:a6:32:82:34:61,-74,1,2
81.44647312164307,dc:a6:32:82:34:61,-73,1,2
81.47145795822144,dc:a6:32:82:34:61,-73,1,2
81.53644800186157,dc:a6:32:82:34:61,-73,1,2
81.60020542144775,dc:a6:32:82:34:61,-73,1,2
81.68510174751282,dc:a6:32:82:34:61,-73,1,2
81.77635049819946,dc:a6:32:82:34:61,-73,1,2
81.83633399009705,dc:a6:32:82:34:61,-73,1,2
81.93012523651123,dc:a6:32:82:34:61,-73,1,2
81.95258045196533,dc:a6:32:82:34:61,-73,1,2
82.01508688926697,dc:a6:32:82:34:61,-74,1,2
82.10508418083191,dc:a6:32:82:34:61,-73,1,2
82.20010209083557,dc:a6:32:82:34:61,-73,1,2
82.28133535385132,dc:a6:32:82:34:61,-73,1,2
82.3425920009613,dc:a6:32:82:34:61,-73,1,2
82.40634679794312,dc:a6:32:82:34:61,-73,1,2
82.47016501426697,dc:a6:32:82:34:61,-73,1,2
82.49136090278625,dc:a6:32:82:34:61,-73,1,2
82.56013298034668,dc:a6:32:82:34:61,-73,1,2
82.64384412765503,dc:a6:32:82:34:61,-73,1,2
82.73134875297546,dc:a6:32:82:34:61,-73,1,2
82.79387378692627,dc:a6:32:82:34:61,-73,1,2
82.85512042045593,dc:a6:32:82:34:61,-73,1,2
82.92014265060425,dc:a6:32:82:34:61,-73,1,2
82.94135427474976,dc:a6:32:82:34:61,-74,1,2
83.00260996818542,dc:a6:32:82:34:61,-73,1,2
83.09511303901672,dc:a6:32:82:34:61,-73,1,2
83.1851065158844,dc:a6:32:82:34:61,-73,1,2
83.277667760849,dc:a6:32:82:34:61,-73,1,2
83.43767642974854,dc:a6:32:82:34:61,-65,1,4
83.52512979507446,dc:a6:32:82:34:61,-65,1,4
83.61636567115784,dc:a6:32:82:34:61,-65,1,4
83.68013167381287,dc:a6:32:82:34:61,-65,1,4
83.70261287689209,dc:a6:32:82:34:61,-65,1,4
83.80014991760254,dc:a6:32:82:34:61,-65,1,4
83.88261723518372,dc:a6:32:82:34:61,-65,1,4
83.94771409034729,dc:a6:32:82:34:61,-65,1,4
84.01014518737793,dc:a6:32:82:34:61,-65,1,4
84.0313651561737,dc:a6:32:82:34:61,-65,1,4
84.0951235294342,dc:a6:32:82:34:61,-65,1,4
84.16015815734863,dc:a6:32:82:34:61,-65,1,4
84.18136167526245,dc:a6:32:82:34:61,-65,1,4
84.24512648582458,dc:a6:32:82:34:61,-65,1,4
84.31015992164612,dc:a6:32:82:34:61,-65,1,4
84.3938820362091,dc:a6:32:82:34:61,-65,1,4
84.4551215171814,dc:a6:32:82:34:61,-65,1,4
84.5188159942627,dc:a6:32:82:34:61,-65,1,4
84.54263257980347,dc:a6:32:82:34:61,-65,1,4
84.60638546943665,dc:a6:32:82:34:61,-65,1,4
84.66880965232849,dc:a6:32:82:34:61,-65,1,4
84.69262528419495,dc:a6:32:82:34:61,-65,1,4
84.75513100624084,dc:a6:32:82:34:61,-65,1,4
84.817706823349,dc:a6:32:82:34:61,-65,1,4
84.84264492988586,dc:a6:32:82:34:61,-65,1,4
84.91017174720764,dc:a6:32:82:34:61,-65,1,4
84.97015619277954,dc:a6:32:82:34:61,-65,1,4
85.03017139434814,dc:a6:32:82:34:61,-65,1,4
85.05513334274292,dc:a6:32:82:34:61,-65,1,4
85.1177089214325,dc:a6:32:82:34:61,-65,1,4
85.20515727996826,dc:a6:32:82:34:61,-65,1,4
85.29265761375427,dc:a6:32:82:34:61,-65,1,4
85.35641169548035,dc:a6:32:82:34:61,-65,1,4
85.51886630058289,dc:a6:32:82:34:61,-67,1,1
85.54266786575317,dc:a6:32:82:34:61,-67,1,1
85.60517191886902,dc:a6:32:82:34:61,-68,1,1
85.66772556304932,dc:a6:32:82:34:61,-67,1,1
85.75771832466125,dc:a6:32:82:34:61,-67,1,1
85.8427369594574,dc:a6:32:82:34:61,-67,1,1
85.90890455245972,dc:a6:32:82:34:61,-67,1,1
85.99656414985657,dc:a6:32:82:34:61,-67,1,1
86.02155590057373,dc:a6:32:82:34:61,-67,1,1
86.08280849456787,dc:a6:32:82:34:61,-67,1,1
86.1428074836731,dc:a6:32:82:34:61,-67,1,1
86.2040536403656,dc:a6:32:82:34:61,-67,1,1
86.2703275680542,dc:a6:32:82:34:61,-67,1,1
86.29279565811157,dc:a6:32:82:34:61,-67,1,1
86.36032605171204,dc:a6:32:82:34:61,-68,1,1
86.44285678863525,dc:a6:32:82:34:61,-67,1,1
86.50407791137695,dc:a6:32:82:34:61,-68,1,1
86.59524416923523,dc:a6:32:82:34:61,-67,1,1
86.65647578239441,dc:a6:32:82:34:61,-67,1,1
86.72024750709534,dc:a6:32:82:34:61,-67,1,1
86.80270957946777,dc:a6:32:82:34:61,-67,1,1
86.8677773475647,dc:a6:32:82:34:61,-67,1,1
86.95892024040222,dc:a6:32:82:34:61,-67,1,1
86.98149251937866,dc:a6:32:82:34:61,-67,1,1
87.05023622512817,dc:a6:32:82:34:61,-67,1,1
87.13890790939331,dc:a6:32:82:34:61,-67,1,1
87.2239637374878,dc:a6:32:82:34:61,-67,1,1
87.31521463394165,dc:a6:32:82:34:61,-68,1,1
87.37521433830261,dc:a6:32:82:34:61,-68,1,1
87.46521997451782,dc:a6:32:82:34:61,-68,1,1
87.6214816570282,dc:a6:32:82:34:61,-73,1,2
87.68889999389648,dc:a6:32:82:34:61,-73,1,2
87.77397203445435,dc:a6:32:82:34:61,-73,1,2
87.83890390396118,dc:a6:32:82:34:61,-73,1,2
87.86272478103638,dc:a6:32:82:34:61,-73,1,2
87.9527337551117,dc:a6:32:82:34:61,-73,1,2
88.0164852142334,dc:a6:32:82:34:61,-73,1,2
88.07890391349792,dc:a6:32:82:34:61,-73,1,2
88.16397857666016,dc:a6:32:82:34:61,-73,1,2
88.25398516654968,dc:a6:32:82:34:61,-73,1,2
88.31783246994019,dc:a6:32:82:34:61,-73,1,2
88.40398645401001,dc:a6:32:82:34:61,-73,1,2
88.47026109695435,dc:a6:32:82:34:61,-73,1,2
88.55399680137634,dc:a6:32:82:34:61,-73,1,2
88.61523532867432,dc:a6:32:82:34:61,-73,1,2
88.67781853675842,dc:a6:32:82:34:61,-73,1,2
88.73894000053406,dc:a6:32:82:34:61,-73,1,2
88.76149916648865,dc:a6:32:82:34:61,-73,1,2
88.82778692245483,dc:a6:32:82:34:61,-73,1,2
88.88779640197754,dc:a6:32:82:34:61,-73,1,2
88.97400617599487,dc:a6:32:82:34:61,-73,1,2
89.03894066810608,dc:a6:32:82:34:61,-73,1,2
89.06150150299072,dc:a6:32:82:34:61,-73,1,2
89.12150979042053,dc:a6:32:82:34:61,-73,1,2
89.21651291847229,dc:a6:32:82:34:61,-74,1,2
89.27651047706604,dc:a6:32:82:34:61,-73,1,2
89.3640079498291,dc:a6:32:82:34:61,-73,1,2
89.45895791053772,dc:a6:32:82:34:61,-73,1,2
89.48400592803955,dc:a6:32:82:34:61,-73,1,2
89.57152056694031,dc:a6:32:82:34:61,-73,1,2
89.7640151977539,dc:a6:32:82:34:61,-65,1,4
89.82894206047058,dc:a6:32:82:34:61,-65,1,4
89.85275650024414,dc:a6:32:82:34:61,-65,1,4
89.91782307624817,dc:a6:32:82:34:61,-65,1,4
90.00527453422546,dc:a6:32:82:34:61,-65,1,4
90.09152364730835,dc:a6:32:82:34:61,-65,1,4
90.16122055053711,dc:a6:32:82:34:61,-65,1,4
90.18328833580017,dc:a6:32:82:34:61,-65,1,4
90.27780866622925,dc:a6:32:82:34:61,-65,1,4
90.30285167694092,dc:a6:32:82:34:61,-65,1,4
90.39282822608948,dc:a6:32:82:34:61,-65,1,4
90.46035194396973,dc:a6:32:82:34:61,-65,1,4
90.4828028678894,dc:a6:32:82:34:61,-65,1,4
90.54787516593933,dc:a6:32:82:34:61,-65,1,4
90.6365692615509,dc:a6:32:82:34:61,-65,1,4
90.66155481338501,dc:a6:32:82:34:61,-65,1,4
90.72899794578552,dc:a6:32:82:34:61,-65,1,4
90.75405788421631,dc:a6:32:82:34:61,-65,1,4
90.81655669212341,dc:a6:32:82:34:61,-65,1,4
90.90531849861145,dc:a6:32:82:34:61,-65,1,4
90.97036600112915,dc:a6:32:82:34:61,-65,1,4
90.99421548843384,dc:a6:32:82:34:61,-65,1,4
91.05812454223633,dc:a6:32:82:34:61,-65,1,4
91.14666223526001,dc:a6:32:82:34:61,-65,1,4
91.23811054229736,dc:a6:32:82:34:61,-65,1,4
91.30044293403625,dc:a6:32:82:34:61,-65,1,4
91.32418251037598,dc:a6:32:82:34:61,-65,1,4
91.4166886806488,dc:a6:32:82:34:61,-65,1,4
91.44168901443481,dc:a6:32:82:34:61,-65,1,4
91.50169062614441,dc:a6:32:82:34:61,-65,1,4
91.56909203529358,dc:a6:32:82:34:61,-65,1,4
91.5915937423706,dc:a6:32:82:34:61,-65,1,4
91.65534853935242,dc:a6:32:82:34:61,-65,1,4
91.71658873558044,dc:a6:32:82:34:61,-65,1,4
91.84790921211243,dc:a6:32:82:34:61,-67,1,1
91.9315996170044,dc:a6:32:82:34:61,-68,1,1
91.99902081489563,dc:a6:32:82:34:61,-68,1,1
92.08902287483215,dc:a6:32:82:34:61,-67,1,1
92.11158585548401,dc:a6:32:82:34:61,-67,1,1
92.17660307884216,dc:a6:32:82:34:61,-67,1,1
92.26534366607666,dc:a6:32:82:34:61,-67,1,1
92.32901954650879,dc:a6:32:82:34:61,-67,1,1
92.4153482913971,dc:a6:32:82:34:61,-67,1,1
92.50535535812378,dc:a6:32:82:34:61,-67,1,1
92.59535574913025,dc:a6:32:82:34:61,-67,1,1
92.65791320800781,dc:a6:32:82:34:61,-67,1,1
92.7453682422638,dc:a6:32:82:34:61,-67,1,1
92.83164930343628,dc:a6:32:82:34:61,-68,1,1
92.89287638664246,dc:a6:32:82:34:61,-67,1,1
92.95540976524353,dc:a6:32:82:34:61,-67,1,1
93.04536437988281,dc:a6:32:82:34:61,-67,1,1
93.1053535938263,dc:a6:32:82:34:61,-67,1,1
93.17041015625,dc:a6:32:82:34:61,-67,1,1
93.19286847114563,dc:a6:32:82:34:61,-67,1,1
93.25905990600586,dc:a6:32:82:34:61,-67,1,1
93.34536147117615,dc:a6:32:82:34:61,-67,1,1
93.40903186798096,dc:a6:32:82:34:61,-67,1,1
93.50042629241943,dc:a6:32:82:34:61,-67,1,1
93.522864818573,dc:a6:32:82:34:61,-67,1,1
93.61289811134338,dc:a6:32:82:34:61,-67,1,1
93.67905068397522,dc:a6:32:82:34:61,-68,1,1
93.7916247844696,dc:a6:32:82:34:61,-67,1,1
93.92908906936646,dc:a6:32:82:34:61,-73,1,2
93.95163154602051,dc:a6:32:82:34:61,-73,1,2
94.04415559768677,dc:a6:32:82:34:61,-73,1,2
94.10793018341064,dc:a6:32:82:34:61,-73,1,2
94.19906663894653,dc:a6:32:82:34:61,-73,1,2
94.22162580490112,dc:a6:32:82:34:61,-73,1,2
94.28792381286621,dc:a6:32:82:34:61,-73,1,2
94.31162977218628,dc:a6:32:82:34:61,-73,1,2
94.3729076385498,dc:a6:32:82:34:61,-74,1,2
94.43288135528564,dc:a6:32:82:34:61,-73,1,2
94.49795389175415,dc:a6:32:82:34:61,-73,1,2
94.55906820297241,dc:a6:32:82:34:61,-73,1,2
94.6428918838501,dc:a6:32:82:34:61,-73,1,2
94.70794820785522,dc:a6:32:82:34:61,-73,1,2
94.7316415309906,dc:a6:32:82:34:61,-73,1,2
94.79907059669495,dc:a6:32:82:34:61,-73,1,2
94.86045289039612,dc:a6:32:82:34:61,-74,1,2
94.88164591789246,dc:a6:32:82:34:61,-73,1,2
94.94908213615417,dc:a6:32:82:34:61,-73,1,2
95.0329098701477,dc:a6:32:82:34:61,-73,1,2
95.09296536445618,dc:a6:32:82:34:61,-73,1,2
95.1591157913208,dc:a6:32:82:34:61,-73,1,2
95.18294310569763,dc:a6:32:82:34:61,-73,1,2
95.24417161941528,dc:a6:32:82:34:61,-73,1,2
95.3066771030426,dc:a6:32:82:34:61,-73,1,2
95.37046694755554,dc:a6:32:82:34:61,-73,1,2
95.39291024208069,dc:a6:32:82:34:61,-73,1,2
95.48543691635132,dc:a6:32:82:34:61,-73,1,2
95.54796171188354,dc:a6:32:82:34:61,-73,1,2
95.57167077064514,dc:a6:32:82:34:61,-73,1,2
95.64045476913452,dc:a6:32:82:34:61,-73,1,2
95.66291499137878,dc:a6:32:82:34:61,-73,1,2
95.72667980194092,dc:a6:32:82:34:61,-73,1,2
95.81293511390686,dc:a6:32:82:34:61,-73,1,2
95.87667512893677,dc:a6:32:82:34:61,-73,1,2
96.03174042701721,dc:a6:32:82:34:61,-65,1,4
96.09826755523682,dc:a6:32:82:34:61,-65,1,4
96.18552541732788,dc:a6:32:82:34:61,-65,1,4
96.27309775352478,dc:a6:32:82:34:61,-65,1,4
96.33305549621582,dc:a6:32:82:34:61,-65,1,4
96.40059280395508,dc:a6:32:82:34:61,-65,1,4
96.48307847976685,dc:a6:32:82:34:61,-65,1,4
96.54821181297302,dc:a6:32:82:34:61,-65,1,4
96.64054751396179,dc:a6:32:82:34:61,-65,1,4
96.66556429862976,dc:a6:32:82:34:61,-65,1,4
96.75430703163147,dc:a6:32:82:34:61,-65,1,4
96.81547665596008,dc:a6:32:82:34:61,-65,1,4
96.90296792984009,dc:a6:32:82:34:61,-65,1,4
96.9967110157013,dc:a6:32:82:34:61,-65,1,4
97.05915188789368,dc:a6:32:82:34:61,-65,1,4
97.08294558525085,dc:a6:32:82:34:61,-65,1,4
97.14670944213867,dc:a6:32:82:34:61,-65,1,4
97.23545956611633,dc:a6:32:82:34:61,-65,1,4
97.2954614162445,dc:a6:32:82:34:61,-65,1,4
97.38803696632385,dc:a6:32:82:34:61,-65,1,4
97.41296935081482,dc:a6:32:82:34:61,-65,1,4
97.50547289848328,dc:a6:32:82:34:61,-65,1,4
97.59421992301941,dc:a6:32:82:34:61,-65,1,4
97.68171954154968,dc:a6:32:82:34:61,-65,1,4
97.74801540374756,dc:a6:32:82:34:61,-65,1,4
97.83297324180603,dc:a6:32:82:34:61,-65,1,4
97.92546892166138,dc:a6:32:82:34:61,-65,1,4
98.01673221588135,dc:a6:32:82:34:61,-65,1,4
98.17549681663513,dc:a6:32:82:34:61,-67,1,1
98.2380313873291,dc:a6:32:82:34:61,-68,1,1
98.26298189163208,dc:a6:32:82:34:61,-67,1,1
98.33052277565002,dc:a6:32:82:34:61,-68,1,1
98.35423445701599,dc:a6:32:82:34:61,-68,1,1
98.44175958633423,dc:a6:32:82:34:61,-67,1,1
98.50549697875977,dc:a6:32:82:34:61,-67,1,1
98.56803560256958,dc:a6:32:82:34:61,-67,1,1
98.65675354003906,dc:a6:32:82:34:61,-67,1,1
98.74916577339172,dc:a6:32:82:34:61,-67,1,1
98.77423238754272,dc:a6:32:82:34:61,-67,1,1
98.86173963546753,dc:a6:32:82:34:61,-67,1,1
98.9291877746582,dc:a6:32:82:34:61,-67,1,1
98.95298910140991,dc:a6:32:82:34:61,-67,1,1
99.02056622505188,dc:a6:32:82:34:61,-67,1,1
99.08054375648499,dc:a6:32:82:34:61,-67,1,1
99.10549688339233,dc:a6:32:82:34:61,-68,1,1
99.2267518043518,dc:a6:32:82:34:61,-68,1,1
99.31675100326538,dc:a6:32:82:34:61,-67,1,1
99.38054919242859,dc:a6:32:82:34:61,-67,1,1
99.46430373191833,dc:a6:32:82:34:61,-67,1,1
99.55301117897034,dc:a6:32:82:34:61,-67,1,1
99.64425849914551,dc:a6:32:82:34:61,-67,1,1
99.73176121711731,dc:a6:32:82:34:61,-67,1,1
99.79920744895935,dc:a6:32:82:34:61,-67,1,1
99.8230299949646,dc:a6:32:82:34:61,-67,1,1
99.91682577133179,dc:a6:32:82:34:61,-67,1,1
99.97806668281555,dc:a6:32:82:34:61,-68,1,1
100.00302362442017,dc:a6:32:82:34:61,-67,1,1
100.06921792030334,dc:a6:32:82:34:61,-68,1,1
100.0930323600769,dc:a6:32:82:34:61,-67,1,1
100.28305077552795,dc:a6:32:82:34:61,-73,1,2
100.37302851676941,dc:a6:32:82:34:61,-73,1,2
100.43806648254395,dc:a6:32:82:34:61,-73,1,2
100.46177935600281,dc:a6:32:82:34:61,-73,1,2
100.52806973457336,dc:a6:32:82:34:61,-73,1,2
100.64181590080261,dc:a6:32:82:34:61,-73,1,2
100.70428466796875,dc:a6:32:82:34:61,-73,1,2
100.76921582221985,dc:a6:32:82:34:61,-73,1,2
100.82920789718628,dc:a6:32:82:34:61,-73,1,2
100.9130449295044,dc:a6:32:82:34:61,-73,1,2
100.97816848754883,dc:a6:32:82:34:61,-73,1,2
101.06311535835266,dc:a6:32:82:34:61,-73,1,2
101.12694263458252,dc:a6:32:82:34:61,-73,1,2
101.22077870368958,dc:a6:32:82:34:61,-73,1,2
101.2431743144989,dc:a6:32:82:34:61,-73,1,2
101.3107078075409,dc:a6:32:82:34:61,-73,1,2
101.33567595481873,dc:a6:32:82:34:61,-73,1,2
101.42318081855774,dc:a6:32:82:34:61,-73,1,2
101.48568511009216,dc:a6:32:82:34:61,-73,1,2
101.54937672615051,dc:a6:32:82:34:61,-74,1,2
101.57319021224976,dc:a6:32:82:34:61,-73,1,2
101.63568258285522,dc:a6:32:82:34:61,-73,1,2
101.72437787055969,dc:a6:32:82:34:61,-73,1,2
101.79062223434448,dc:a6:32:82:34:61,-73,1,2
101.81307315826416,dc:a6:32:82:34:61,-74,1,2
101.8781144618988,dc:a6:32:82:34:61,-73,1,2
101.96683144569397,dc:a6:32:82:34:61,-73,1,2
102.02682662010193,dc:a6:32:82:34:61,-73,1,2
102.0518217086792,dc:a6:32:82:34:61,-73,1,2
102.11307668685913,dc:a6:32:82:34:61,-73,1,2
102.20684051513672,dc:a6:32:82:34:61,-73,1,2
102.33928084373474,dc:a6:32:82:34:61,-65,1,4
102.42183828353882,dc:a6:32:82:34:61,-65,1,4
102.48308038711548,dc:a6:32:82:34:61,-65,1,4
102.5492730140686,dc:a6:32:82:34:61,-65,1,4
102.63559246063232,dc:a6:32:82:34:61,-65,1,4
102.72433400154114,dc:a6:32:82:34:61,-65,1,4
102.78684449195862,dc:a6:32:82:34:61,-65,1,4
102.87558817863464,dc:a6:32:82:34:61,-65,1,4
102.93928790092468,dc:a6:32:82:34:61,-65,1,4
102.99927234649658,dc:a6:32:82:34:61,-65,1,4
103.0606324672699,dc:a6:32:82:34:61,-65,1,4
103.14309000968933,dc:a6:32:82:34:61,-65,1,4
103.20309853553772,dc:a6:32:82:34:61,-65,1,4
103.2692801952362,dc:a6:32:82:34:61,-65,1,4
103.35810208320618,dc:a6:32:82:34:61,-65,1,4
103.381840467453,dc:a6:32:82:34:61,-65,1,4
103.44435524940491,dc:a6:32:82:34:61,-65,1,4
103.5055935382843,dc:a6:32:82:34:61,-65,1,4
103.59437227249146,dc:a6:32:82:34:61,-65,1,4
103.65811586380005,dc:a6:32:82:34:61,-65,1,4
103.68310070037842,dc:a6:32:82:34:61,-65,1,4
103.74560856819153,dc:a6:32:82:34:61,-65,1,4
103.80928540229797,dc:a6:32:82:34:61,-65,1,4
103.83309149742126,dc:a6:32:82:34:61,-65,1,4
103.92311573028564,dc:a6:32:82:34:61,-65,1,4
104.0143620967865,dc:a6:32:82:34:61,-65,1,4
104.07930374145508,dc:a6:32:82:34:61,-65,1,4
104.10434317588806,dc:a6:32:82:34:61,-65,1,4
104.17064166069031,dc:a6:32:82:34:61,-65,1,4
104.19184708595276,dc:a6:32:82:34:61,-65,1,4
104.25812125205994,dc:a6:32:82:34:61,-65,1,4
104.32065439224243,dc:a6:32:82:34:61,-65,1,4
104.44315433502197,dc:a6:32:82:34:61,-67,1,1
104.50687909126282,dc:a6:32:82:34:61,-67,1,1
104.59930896759033,dc:a6:32:82:34:61,-68,1,1
104.6243827342987,dc:a6:32:82:34:61,-68,1,1
104.71815013885498,dc:a6:32:82:34:61,-67,1,1
104.80812883377075,dc:a6:32:82:34:61,-67,1,1
104.87068605422974,dc:a6:32:82:34:61,-67,1,1
104.8943829536438,dc:a6:32:82:34:61,-67,1,1
104.95931386947632,dc:a6:32:82:34:61,-67,1,1
104.98188424110413,dc:a6:32:82:34:61,-67,1,1
105.0468921661377,dc:a6:32:82:34:61,-67,1,1
105.07188177108765,dc:a6:32:82:34:61,-66,1,1
105.16439485549927,dc:a6:32:82:34:61,-67,1,1
105.25564575195312,dc:a6:32:82:34:61,-67,1,1
105.31935596466064,dc:a6:32:82:34:61,-67,1,1
105.40440106391907,dc:a6:32:82:34:61,-67,1,1
105.47068905830383,dc:a6:32:82:34:61,-68,1,1
105.58442306518555,dc:a6:32:82:34:61,-68,1,1
105.64814925193787,dc:a6:32:82:34:61,-67,1,1
105.67192149162292,dc:a6:32:82:34:61,-67,1,1
105.74070858955383,dc:a6:32:82:34:61,-67,1,1
105.76314663887024,dc:a6:32:82:34:61,-67,1,1
105.82692623138428,dc:a6:32:82:34:61,-67,1,1
105.91816782951355,dc:a6:32:82:34:61,-67,1,1
106.00192785263062,dc:a6:32:82:34:61,-67,1,1
106.06821274757385,dc:a6:32:82:34:61,-67,1,1
106.0920627117157,dc:a6:32:82:34:61,-67,1,1
106.15705394744873,dc:a6:32:82:34:61,-67,1,1
106.21951413154602,dc:a6:32:82:34:61,-67,1,1
106.27951955795288,dc:a6:32:82:34:61,-67,1,1
106.30456805229187,dc:a6:32:82:34:61,-67,1,1
106.36456203460693,dc:a6:32:82:34:61,-68,1,1
106.5883264541626,dc:a6:32:82:34:61,-73,1,2
106.65085554122925,dc:a6:32:82:34:61,-73,1,2
106.73581576347351,dc:a6:32:82:34:61,-73,1,2
106.82581639289856,dc:a6:32:82:34:61,-73,1,2
106.88940954208374,dc:a6:32:82:34:61,-73,1,2
106.91197776794434,dc:a6:32:82:34:61,-73,1,2
106.97941589355469,dc:a6:32:82:34:61,-73,1,2
107.0657160282135,dc:a6:32:82:34:61,-73,1,2
107.15196561813354,dc:a6:32:82:34:61,-73,1,2
107.21571969985962,dc:a6:32:82:34:61,-73,1,2
107.30446100234985,dc:a6:32:82:34:61,-73,1,2
107.39697623252869,dc:a6:32:82:34:61,-73,1,2
107.45941162109375,dc:a6:32:82:34:61,-73,1,2
107.55076575279236,dc:a6:32:82:34:61,-73,1,2
107.57446479797363,dc:a6:32:82:34:61,-73,1,2
107.64077019691467,dc:a6:32:82:34:61,-73,1,2
107.66451025009155,dc:a6:32:82:34:61,-73,1,2
107.72573113441467,dc:a6:32:82:34:61,-73,1,2
107.8132336139679,dc:a6:32:82:34:61,-73,1,2
107.90823602676392,dc:a6:32:82:34:61,-73,1,2
107.99446940422058,dc:a6:32:82:34:61,-73,1,2
108.08697128295898,dc:a6:32:82:34:61,-73,1,2
108.17447185516357,dc:a6:32:82:34:61,-73,1,2
108.26574063301086,dc:a6:32:82:34:61,-73,1,2
108.3282196521759,dc:a6:32:82:34:61,-73,1,2
108.41701984405518,dc:a6:32:82:34:61,-73,1,2
108.50701761245728,dc:a6:32:82:34:61,-73,1,2
108.6670184135437,dc:a6:32:82:34:61,-65,1,4
108.75697469711304,dc:a6:32:82:34:61,-65,1,4
108.84200525283813,dc:a6:32:82:34:61,-65,1,4
108.90697836875916,dc:a6:32:82:34:61,-65,1,4
108.99824070930481,dc:a6:32:82:34:61,-65,1,4
109.06079411506653,dc:a6:32:82:34:61,-65,1,4
109.08197569847107,dc:a6:32:82:34:61,-65,1,4
109.14823055267334,dc:a6:32:82:34:61,-65,1,4
109.2394289970398,dc:a6:32:82:34:61,-65,1,4
109.3257303237915,dc:a6:32:82:34:61,-65,1,4
109.3869879245758,dc:a6:32:82:34:61,-65,1,4
109.47578597068787,dc:a6:32:82:34:61,-65,1,4
109.54079341888428,dc:a6:32:82:34:61,-65,1,4
109.56323432922363,dc:a6:32:82:34:61,-65,1,4
109.62449073791504,dc:a6:32:82:34:61,-65,1,4
109.71577739715576,dc:a6:32:82:34:61,-65,1,4
109.77824568748474,dc:a6:32:82:34:61,-65,1,4
109.80323767662048,dc:a6:32:82:34:61,-65,1,4
109.86826395988464,dc:a6:32:82:34:61,-65,1,4
109.95945405960083,dc:a6:32:82:34:61,-65,1,4
110.04574513435364,dc:a6:32:82:34:61,-65,1,4
110.11078596115112,dc:a6:32:82:34:61,-65,1,4
110.19451451301575,dc:a6:32:82:34:61,-65,1,4
110.25575637817383,dc:a6:32:82:34:61,-65,1,4
110.3445246219635,dc:a6:32:82:34:61,-65,1,4
110.40451765060425,dc:a6:32:82:34:61,-65,1,4
110.4708104133606,dc:a6:32:82:34:61,-65,1,4
110.55202555656433,dc:a6:32:82:34:61,-65,1,4
110.6157796382904,dc:a6:32:82:34:61,-65,1,4
110.75083470344543,dc:a6:32:82:34:61,-67,1,1
110.77452349662781,dc:a6:32:82:34:61,-67,1,1
110.86704874038696,dc:a6:32:82:34:61,-68,1,1
110.95579218864441,dc:a6:32:82:34:61,-68,1,1
111.04463124275208,dc:a6:32:82:34:61,-67,1,1
111.13334465026855,dc:a6:32:82:34:61,-67,1,1
111.19964599609375,dc:a6:32:82:34:61,-67,1,1
111.22468709945679,dc:a6:32:82:34:61,-67,1,1
111.28847098350525,dc:a6:32:82:34:61,-67,1,1
111.34844160079956,dc:a6:32:82:34:61,-67,1,1
111.37217855453491,dc:a6:32:82:34:61,-67,1,1
111.4409704208374,dc:a6:32:82:34:61,-67,1,1
111.52595138549805,dc:a6:32:82:34:61,-67,1,1
111.61345553398132,dc:a6:32:82:34:61,-67,1,1
111.67751455307007,dc:a6:32:82:34:61,-67,1,1
111.76716685295105,dc:a6:32:82:34:61,-67,1,1
111.85710287094116,dc:a6:32:82:34:61,-68,1,1
111.94587111473083,dc:a6:32:82:34:61,-66,1,1
112.04089260101318,dc:a6:32:82:34:61,-66,1,1
112.06582546234131,dc:a6:32:82:34:61,-67,1,1
112.12952446937561,dc:a6:32:82:34:61,-67,1,1
112.1908802986145,dc:a6:32:82:34:61,-67,1,1
112.21457934379578,dc:a6:32:82:34:61,-67,1,1
112.30458950996399,dc:a6:32:82:34:61,-67,1,1
112.36951065063477,dc:a6:32:82:34:61,-67,1,1
112.3945779800415,dc:a6:32:82:34:61,-67,1,1
112.45954179763794,dc:a6:32:82:34:61,-67,1,1
112.54586434364319,dc:a6:32:82:34:61,-67,1,1
112.63709783554077,dc:a6:32:82:34:61,-68,1,1
112.66209578514099,dc:a6:32:82:34:61,-67,1,1
112.7270929813385,dc:a6:32:82:34:61,-67,1,1
112.85336208343506,dc:a6:32:82:34:61,-73,1,2
112.91954946517944,dc:a6:32:82:34:61,-73,1,2
112.94336676597595,dc:a6:32:82:34:61,-73,1,2
113.00835585594177,dc:a6:32:82:34:61,-73,1,2
113.0921061038971,dc:a6:32:82:34:61,-73,1,2
113.15835475921631,dc:a6:32:82:34:61,-73,1,2
113.24586296081543,dc:a6:32:82:34:61,-73,1,2
113.33460474014282,dc:a6:32:82:34:61,-73,1,2
113.39835548400879,dc:a6:32:82:34:61,-73,1,2
113.48211026191711,dc:a6:32:82:34:61,-73,1,2
113.54213786125183,dc:a6:32:82:34:61,-73,1,2
113.61089706420898,dc:a6:32:82:34:61,-73,1,2
113.69586849212646,dc:a6:32:82:34:61,-73,1,2
113.75954818725586,dc:a6:32:82:34:61,-73,1,2
113.78460836410522,dc:a6:32:82:34:61,-73,1,2
113.8483657836914,dc:a6:32:82:34:61,-73,1,2
113.93711996078491,dc:a6:32:82:34:61,-73,1,2
114.02839541435242,dc:a6:32:82:34:61,-73,1,2
114.11713457107544,dc:a6:32:82:34:61,-73,1,2
114.20955729484558,dc:a6:32:82:34:61,-73,1,2
114.23463487625122,dc:a6:32:82:34:61,-73,1,2
114.29712653160095,dc:a6:32:82:34:61,-73,1,2
114.36091089248657,dc:a6:32:82:34:61,-73,1,2
114.38212442398071,dc:a6:32:82:34:61,-73,1,2
114.44463968276978,dc:a6:32:82:34:61,-73,1,2
114.5095624923706,dc:a6:32:82:34:61,-73,1,2
114.53213572502136,dc:a6:32:82:34:61,-74,1,2
114.59714150428772,dc:a6:32:82:34:61,-73,1,2
114.62213444709778,dc:a6:32:82:34:61,-73,1,2
114.68713808059692,dc:a6:32:82:34:61,-73,1,2
114.77340769767761,dc:a6:32:82:34:61,-73,1,2
114.83956217765808,dc:a6:32:82:34:61,-73,1,2
115.02339482307434,dc:a6:32:82:34:61,-65,1,4
115.08588886260986,dc:a6:32:82:34:61,-65,1,4
115.14588332176208,dc:a6:32:82:34:61,-65,1,4
115.21092343330383,dc:a6:32:82:34:61,-65,1,4
115.27092599868774,dc:a6:32:82:34:61,-65,1,4
115.36093330383301,dc:a6:32:82:34:61,-65,1,4
115.38216233253479,dc:a6:32:82:34:61,-65,1,4
115.44838809967041,dc:a6:32:82:34:61,-65,1,4
115.53337907791138,dc:a6:32:82:34:61,-65,1,4
115.59958171844482,dc:a6:32:82:34:61,-65,1,4
115.68591737747192,dc:a6:32:82:34:61,-65,1,4
115.77715468406677,dc:a6:32:82:34:61,-65,1,4
115.83840417861938,dc:a6:32:82:34:61,-65,1,4
115.86214637756348,dc:a6:32:82:34:61,-65,1,4
115.92715668678284,dc:a6:32:82:34:61,-65,1,4
115.98959374427795,dc:a6:32:82:34:61,-65,1,4
116.0134048461914,dc:a6:32:82:34:61,-65,1,4
116.07600522041321,dc:a6:32:82:34:61,-64,1,4
116.16965579986572,dc:a6:32:82:34:61,-65,1,4
116.25356149673462,dc:a6:32:82:34:61,-65,1,4
116.31976056098938,dc:a6:32:82:34:61,-65,1,4
116.38110136985779,dc:a6:32:82:34:61,-65,1,4
116.40229678153992,dc:a6:32:82:34:61,-65,1,4
116.46604442596436,dc:a6:32:82:34:61,-65,1,4
116.52767324447632,dc:a6:32:82:34:61,-65,1,4
116.59106540679932,dc:a6:32:82:34:61,-65,1,4
116.67973494529724,dc:a6:32:82:34:61,-65,1,4
116.76606249809265,dc:a6:32:82:34:61,-65,1,4
116.85604429244995,dc:a6:32:82:34:61,-65,1,4
116.94597697257996,dc:a6:32:82:34:61,-65,1,4
117.1022219657898,dc:a6:32:82:34:61,-67,1,1
117.19595575332642,dc:a6:32:82:34:61,-68,1,1
117.26100254058838,dc:a6:32:82:34:61,-68,1,1
117.2859480381012,dc:a6:32:82:34:61,-68,1,1
117.34963917732239,dc:a6:32:82:34:61,-67,1,1
117.3721981048584,dc:a6:32:82:34:61,-67,1,1
117.43845653533936,dc:a6:32:82:34:61,-66,1,1
117.52726984024048,dc:a6:32:82:34:61,-67,1,1
117.59099340438843,dc:a6:32:82:34:61,-67,1,1
117.61345672607422,dc:a6:32:82:34:61,-67,1,1
117.70595693588257,dc:a6:32:82:34:61,-67,1,1
117.77100825309753,dc:a6:32:82:34:61,-67,1,1
117.79471325874329,dc:a6:32:82:34:61,-67,1,1
117.88726234436035,dc:a6:32:82:34:61,-67,1,1
117.97346901893616,dc:a6:32:82:34:61,-67,1,1
118.04101157188416,dc:a6:32:82:34:61,-68,1,1
118.06346917152405,dc:a6:32:82:34:61,-68,1,1
118.12726378440857,dc:a6:32:82:34:61,-67,1,1
118.21475553512573,dc:a6:32:82:34:61,-67,1,1
118.30598640441895,dc:a6:32:82:34:61,-67,1,1
118.39222455024719,dc:a6:32:82:34:61,-67,1,1
118.45597505569458,dc:a6:32:82:34:61,-66,1,1
118.54728269577026,dc:a6:32:82:34:61,-67,1,1
118.57223296165466,dc:a6:32:82:34:61,-67,1,1
118.63598895072937,dc:a6:32:82:34:61,-67,1,1
118.72598648071289,dc:a6:32:82:34:61,-67,1,1
118.81599426269531,dc:a6:32:82:34:61,-67,1,1
118.88102746009827,dc:a6:32:82:34:61,-67,1,1
118.90348792076111,dc:a6:32:82:34:61,-67,1,1
118.99475288391113,dc:a6:32:82:34:61,-68,1,1
119.1610357761383,dc:a6:32:82:34:61,-73,1,2
119.18728613853455,dc:a6:32:82:34:61,-73,1,2
119.27475333213806,dc:a6:32:82:34:61,-73,1,2
119.33969902992249,dc:a6:32:82:34:61,-73,1,2
119.42849946022034,dc:a6:32:82:34:61,-73,1,2
119.5147500038147,dc:a6:32:82:34:61,-73,1,2
119.60225653648376,dc:a6:32:82:34:61,-74,1,2
119.66600036621094,dc:a6:32:82:34:61,-73,1,2
119.75225758552551,dc:a6:32:82:34:61,-73,1,2
119.81350898742676,dc:a6:32:82:34:61,-73,1,2
119.87852358818054,dc:a6:32:82:34:61,-73,1,2
119.90350031852722,dc:a6:32:82:34:61,-73,1,2
119.96852207183838,dc:a6:32:82:34:61,-73,1,2
119.99226188659668,dc:a6:32:82:34:61,-73,1,2
